{
	"success": 1,
	"tips": "\u6210\u529f\u83b7\u53d6\u6570\u636e",
	"page": 1,
	"pages": 11,
	"pagesize": 10,
	"total": 107,
	"list": [{
		"tid": 1313,
		"typeid": 5,
		"tempid": 1,
		"icon": null,
		"icon_width": 250,
		"icon_height": 130,
		"image": "http://img.meishai.com/2016/0530/20160530115404318.jpg",
		"image_width": 750,
		"image_height": 380,
		"isnew": 0,
		"title": "\u6ca1\u6709\u4e00\u53cc\u51c9\u62d6 \u90fd\u4e0d\u597d\u610f\u601d\u8fc7\u590f\u5929\u4e86",
		"sub_title": "",
		"sub_title_color": "FFFFFF",
		"catlist": [{
			"cid": 1,
			"catname": "\u7a7f\u8863\u642d\u914d"
		}],
		"isfollow": 0,
		"url": "http://www.baidu.com",
		"view_num": 61392,
		"follow_num": 5881
	}, {
		"tid": 1280,
		"typeid": 5,
		"tempid": 1,
		"icon": "http://img.meishai.com/2016/0322/20160322093242287.png",
		"icon_width": 250,
		"icon_height": 130,
		"image": "http://img.meishai.com/2016/0516/20160516114809623.jpg",
		"image_width": 750,
		"image_height": 380,
		"isnew": 0,
		"title": "\u628a\u6ce2\u8c31\u5929\u5929\u7a7f\u5728\u811a\u4e0a",
		"sub_title": "",
		"sub_title_color": "FFFFFF",
		"catlist": [{
			"cid": 1,
			"catname": "\u7a7f\u8863\u642d\u914d"
		}, {
			"cid": 25,
			"catname": "\u7f8e\u597d\u5e97\u94fa"
		}],
		"isfollow": 0,
		"url": "http://www.baidu.com",
		"view_num": 97237,
		"follow_num": 9083
	}, {
		"tid": 1255,
		"typeid": 5,
		"tempid": 1,
		"icon": null,
		"icon_width": 250,
		"icon_height": 130,
		"image": "http://img.meishai.com/2016/0506/20160506055135969.jpg",
		"image_width": 750,
		"image_height": 380,
		"isnew": 0,
		"title": "\u6d77\u8fb9\u6700\u80fd\u5438\u775b\u7684\u6bd4\u57fa\u5c3c",
		"sub_title": "",
		"sub_title_color": "FFFFFF",
		"catlist": [{
			"cid": 1,
			"catname": "\u7a7f\u8863\u642d\u914d"
		}],
		"isfollow": 0,
		"url": "http://www.baidu.com",
		"view_num": 84529,
		"follow_num": 7771
	}, {
		"tid": 1252,
		"typeid": 5,
		"tempid": 1,
		"icon": null,
		"icon_width": 250,
		"icon_height": 130,
		"image": "http://img.meishai.com/2016/0505/20160505034108900.jpg",
		"image_width": 750,
		"image_height": 380,
		"isnew": 0,
		"title": "\u4fdd\u5b88\u578b\u5973\u751f\u5fc5\u5907\u6cf3\u88c5",
		"sub_title": "\u4fdd\u5b88\u578b\u6cf3\u88c5",
		"sub_title_color": "FFFFFF",
		"catlist": [{
			"cid": 1,
			"catname": "\u7a7f\u8863\u642d\u914d"
		}],
		"isfollow": 0,
		"url": "http://www.baidu.com",
		"view_num": 83488,
		"follow_num": 7611
	}, {
		"tid": 1244,
		"typeid": 5,
		"tempid": 1,
		"icon": null,
		"icon_width": 250,
		"icon_height": 130,
		"image": "http://img.meishai.com/2016/0504/20160504092232733.jpg",
		"image_width": 750,
		"image_height": 380,
		"isnew": 0,
		"title": "\u7b80\u5355\u767e\u642d   \u8863\u6a71\u91cc\u7684\u5e38\u9752\u6811",
		"sub_title": "T\u6064",
		"sub_title_color": "FFFFFF",
		"catlist": [{
			"cid": 1,
			"catname": "\u7a7f\u8863\u642d\u914d"
		}, {
			"cid": 4,
			"catname": "\u5c45\u5bb6\u65e5\u7528"
		}],
		"isfollow": 0,
		"url": "http://www.baidu.com",
		"view_num": 80007,
		"follow_num": 7379
	}, {
		"tid": 1240,
		"typeid": 5,
		"tempid": 1,
		"icon": null,
		"icon_width": 250,
		"icon_height": 130,
		"image": "http://img.meishai.com/2016/0429/20160429043041188.jpg",
		"image_width": 750,
		"image_height": 380,
		"isnew": 0,
		"title": "10\u79d2\u641e\u5b9a\u9020\u578b\u7684\u8fde\u4f53\u88e4",
		"sub_title": "",
		"sub_title_color": "FFFFFF",
		"catlist": [{
			"cid": 1,
			"catname": "\u7a7f\u8863\u642d\u914d"
		}],
		"isfollow": 0,
		"url": "http://www.baidu.com",
		"view_num": 66260,
		"follow_num": 6386
	}, {
		"tid": 981,
		"typeid": 5,
		"tempid": 1,
		"icon": null,
		"icon_width": 250,
		"icon_height": 130,
		"image": "http://img.meishai.com/2016/0429/20160429101423859.jpg",
		"image_width": 750,
		"image_height": 380,
		"isnew": 0,
		"title": "\u5f53\u6ce2\u897f\u7c73\u4e9a\u649e\u4e0a\u6c11\u65cf\u98ce",
		"sub_title": "\u6ce2\u897f\u7c73\u4e9a\u98ce",
		"sub_title_color": "FFFFFF",
		"catlist": [{
			"cid": 1,
			"catname": "\u7a7f\u8863\u642d\u914d"
		}],
		"isfollow": 0,
		"url": "http://www.baidu.com",
		"view_num": 138487,
		"follow_num": 13320
	}, {
		"tid": 1235,
		"typeid": 5,
		"tempid": 1,
		"icon": null,
		"icon_width": 250,
		"icon_height": 130,
		"image": "http://img.meishai.com/2016/0428/20160428055239544.jpg",
		"image_width": 750,
		"image_height": 380,
		"isnew": 0,
		"title": "\u8ba9\u767e\u8936\u88d9\u62ef\u6551\u4f60\u7684\u8eab\u6750\u5427",
		"sub_title": "\u767e\u8936\u88d9",
		"sub_title_color": "FFFFFF",
		"catlist": [{
			"cid": 1,
			"catname": "\u7a7f\u8863\u642d\u914d"
		}],
		"isfollow": 0,
		"url": "http://www.baidu.com",
		"view_num": 56583,
		"follow_num": 5465
	}, {
		"tid": 1224,
		"typeid": 5,
		"tempid": 1,
		"icon": "http://img.meishai.com/2016/0322/20160322093242287.png",
		"icon_width": 250,
		"icon_height": 130,
		"image": "http://img.meishai.com/2016/0426/20160426030745815.jpg",
		"image_width": 750,
		"image_height": 380,
		"isnew": 0,
		"title": "\u5ea6\u5047\u98ce\u8fde\u8863\u88d9\u8be5\u600e\u4e48\u9009\u62e9",
		"sub_title": "SinceThen/\u4ece\u90a3\u4ee5\u540e",
		"sub_title_color": "FFFFFF",
		"catlist": [{
			"cid": 1,
			"catname": "\u7a7f\u8863\u642d\u914d"
		}, {
			"cid": 25,
			"catname": "\u7f8e\u597d\u5e97\u94fa"
		}],
		"isfollow": 0,
		"url": "http://www.baidu.com",
		"view_num": 49462,
		"follow_num": 4822
	}, {
		"tid": 1220,
		"typeid": 5,
		"tempid": 1,
		"icon": "http://img.meishai.com/2016/0322/20160322093242287.png",
		"icon_width": 250,
		"icon_height": 130,
		"image": "http://img.meishai.com/2016/0426/20160426023218891.jpg",
		"image_width": 750,
		"image_height": 380,
		"isnew": 0,
		"title": "\u4f1a\u642d\u914d\u624d\u662f\u5996\u7cbe\u4eec\u7684\u738b\u9053",
		"sub_title": "\u7f8e\u5973\u7684\u5927\u8863\u67dc",
		"sub_title_color": "FFFFFF",
		"catlist": [{
			"cid": 1,
			"catname": "\u7a7f\u8863\u642d\u914d"
		}, {
			"cid": 25,
			"catname": "\u7f8e\u597d\u5e97\u94fa"
		}],
		"isfollow": 0,
		"url": "http://www.baidu.com",
		"view_num": 50601,
		"follow_num": 4707
	}]
}\
