{
	"success": 1,
	"tips": "\u6210\u529f\u83b7\u53d6\u6570\u636e",
	"page": 1,
	"pages": 7,
	"pagesize": 10,
	"total": 63,
	"list": [{
		"tid": 1275,
		"typeid": 5,
		"tempid": 1,
		"icon": null,
		"icon_width": 250,
		"icon_height": 130,
		"image": "http://img.meishai.com/2016/0513/20160513041134595.jpg",
		"image_width": 750,
		"image_height": 380,
		"isnew": 0,
		"title": "\u590d\u53e4\u978b\u56de\u6f6e \u4eca\u590f\u6765\u70b9\u7b80\u7ea6\u4f18\u96c5",
		"sub_title": "",
		"sub_title_color": "FFFFFF",
		"catlist": [{
			"cid": 2,
			"catname": "\u978b\u5b50\u5305\u5305"
		}],
		"isfollow": 0,
		"url": "http://www.baidu.com",
		"view_num": 93796,
		"follow_num": 8985
	}, {
		"tid": 1254,
		"typeid": 5,
		"tempid": 1,
		"icon": "http://img.meishai.com/2016/0322/20160322093242287.png",
		"icon_width": 250,
		"icon_height": 130,
		"image": "http://img.meishai.com/2016/0506/20160506045834449.jpg",
		"image_width": 750,
		"image_height": 380,
		"isnew": 0,
		"title": "Ipanema \u5df4\u897f\u4eba\u6c14\u51c9\u62d6",
		"sub_title": "",
		"sub_title_color": "FFFFFF",
		"catlist": [{
			"cid": 2,
			"catname": "\u978b\u5b50\u5305\u5305"
		}, {
			"cid": 25,
			"catname": "\u7f8e\u597d\u5e97\u94fa"
		}],
		"isfollow": 0,
		"url": "http://www.baidu.com",
		"view_num": 81535,
		"follow_num": 7696
	}, {
		"tid": 1246,
		"typeid": 5,
		"tempid": 1,
		"icon": "http://img.meishai.com/2016/0322/20160322093242287.png",
		"icon_width": 250,
		"icon_height": 130,
		"image": "http://img.meishai.com/2016/0506/20160506092011597.jpg",
		"image_width": 750,
		"image_height": 380,
		"isnew": 0,
		"title": "\u9001\u7ed9\u5988\u5988\u4e00\u4e2a\u6f02\u4eae\u5305\u5305",
		"sub_title": "\u7ecf\u5178\u5305\u5305",
		"sub_title_color": "FFFFFF",
		"catlist": [{
			"cid": 2,
			"catname": "\u978b\u5b50\u5305\u5305"
		}, {
			"cid": 25,
			"catname": "\u7f8e\u597d\u5e97\u94fa"
		}],
		"isfollow": 0,
		"url": "http://www.baidu.com",
		"view_num": 82666,
		"follow_num": 7644
	}, {
		"tid": 1222,
		"typeid": 5,
		"tempid": 1,
		"icon": null,
		"icon_width": 250,
		"icon_height": 130,
		"image": "http://img.meishai.com/2016/0426/20160426025037815.jpg",
		"image_width": 750,
		"image_height": 380,
		"isnew": 0,
		"title": "\u4e94\u4e00\u6e38\u73a9\u201c\u5305\u201d\u4f60\u64a9\u4eba\u62a2\u955c",
		"sub_title": "\u6c99\u6ee9\u5305",
		"sub_title_color": "FFFFFF",
		"catlist": [{
			"cid": 2,
			"catname": "\u978b\u5b50\u5305\u5305"
		}],
		"isfollow": 0,
		"url": "http://www.baidu.com",
		"view_num": 48111,
		"follow_num": 4636
	}, {
		"tid": 1202,
		"typeid": 5,
		"tempid": 1,
		"icon": "http://img.meishai.com/2016/0322/20160322093242287.png",
		"icon_width": 250,
		"icon_height": 130,
		"image": "http://img.meishai.com/2016/0420/20160420040254610.jpg",
		"image_width": 750,
		"image_height": 380,
		"isnew": 0,
		"title": "\u4e94\u4e00\u5ea6\u5047\u5e94\u8be5\u7a7f\u4ec0\u4e48\u978b",
		"sub_title": "\u539f\u521b\u4eba\u5b57\u62d6",
		"sub_title_color": "FFFFFF",
		"catlist": [{
			"cid": 2,
			"catname": "\u978b\u5b50\u5305\u5305"
		}, {
			"cid": 25,
			"catname": "\u7f8e\u597d\u5e97\u94fa"
		}],
		"isfollow": 0,
		"url": "http://www.baidu.com",
		"view_num": 67062,
		"follow_num": 6412
	}, {
		"tid": 1195,
		"typeid": 5,
		"tempid": 1,
		"icon": "http://img.meishai.com/2016/0322/20160322093242287.png",
		"icon_width": 250,
		"icon_height": 130,
		"image": "http://img.meishai.com/2016/0421/20160421094008114.jpg",
		"image_width": 750,
		"image_height": 380,
		"isnew": 0,
		"title": "\u62e5\u6709\u4e00\u4e2a\u4e0e\u4f17\u4e0d\u540c\u7684\u94b1\u5305",
		"sub_title": "Oneday",
		"sub_title_color": "FFFFFF",
		"catlist": [{
			"cid": 2,
			"catname": "\u978b\u5b50\u5305\u5305"
		}, {
			"cid": 25,
			"catname": "\u7f8e\u597d\u5e97\u94fa"
		}],
		"isfollow": 0,
		"url": "http://www.baidu.com",
		"view_num": 79609,
		"follow_num": 7478
	}, {
		"tid": 1198,
		"typeid": 5,
		"tempid": 1,
		"icon": null,
		"icon_width": 250,
		"icon_height": 130,
		"image": "http://img.meishai.com/2016/0419/20160419095312968.jpg",
		"image_width": 750,
		"image_height": 380,
		"isnew": 0,
		"title": "\u5f88\u5c0f\u5f88\u840c   \u4f46\u662f\u66f4\u8ba8\u4eba\u559c\u6b22",
		"sub_title": "\u8ff7\u4f60\u5305\u5305",
		"sub_title_color": "FFFFFF",
		"catlist": [{
			"cid": 2,
			"catname": "\u978b\u5b50\u5305\u5305"
		}],
		"isfollow": 0,
		"url": "http://www.baidu.com",
		"view_num": 83342,
		"follow_num": 7677
	}, {
		"tid": 1197,
		"typeid": 5,
		"tempid": 1,
		"icon": "http://img.meishai.com/2016/0322/20160322093242287.png",
		"icon_width": 250,
		"icon_height": 130,
		"image": "http://img.meishai.com/2016/0416/20160416032826262.jpg",
		"image_width": 750,
		"image_height": 380,
		"isnew": 0,
		"title": " \u7687\u540e\u5a18\u5a18\u90fd\u8ffd\u968f\u7684\u4e00\u6b3e\u6f6e\u978b",
		"sub_title": "palladium",
		"sub_title_color": "FFFFFF",
		"catlist": [{
			"cid": 2,
			"catname": "\u978b\u5b50\u5305\u5305"
		}, {
			"cid": 25,
			"catname": "\u7f8e\u597d\u5e97\u94fa"
		}],
		"isfollow": 0,
		"url": "http://www.baidu.com",
		"view_num": 81876,
		"follow_num": 7787
	}, {
		"tid": 1179,
		"typeid": 5,
		"tempid": 1,
		"icon": "http://img.meishai.com/2016/0322/20160322093242287.png",
		"icon_width": 250,
		"icon_height": 130,
		"image": "http://img.meishai.com/2016/0414/20160414051254329.jpg",
		"image_width": 750,
		"image_height": 380,
		"isnew": 0,
		"title": "\u6765\u8fd9\u91cc  \u9047\u89c1\u5c5e\u4e8e\u4f60\u7684\u7f8e\u597d",
		"sub_title": "\u54d0\u82b1\u6751\u539f\u521b\u5bb6\u5c45",
		"sub_title_color": "FFFFFF",
		"catlist": [{
			"cid": 2,
			"catname": "\u978b\u5b50\u5305\u5305"
		}, {
			"cid": 25,
			"catname": "\u7f8e\u597d\u5e97\u94fa"
		}],
		"isfollow": 0,
		"url": "http://www.baidu.com",
		"view_num": 72176,
		"follow_num": 6823
	}, {
		"tid": 1175,
		"typeid": 5,
		"tempid": 1,
		"icon": "http://img.meishai.com/2016/0322/20160322093242287.png",
		"icon_width": 250,
		"icon_height": 130,
		"image": "http://img.meishai.com/2016/0413/20160413115030273.jpg",
		"image_width": 750,
		"image_height": 380,
		"isnew": 0,
		"title": "\u4e70\u53cc\u597d\u7684\u9ad8\u8ddf\u978b  \u5f88\u6709\u5fc5\u8981",
		"sub_title": "westory\u540d\u5a9b\u98ce",
		"sub_title_color": "FFFFFF",
		"catlist": [{
			"cid": 2,
			"catname": "\u978b\u5b50\u5305\u5305"
		}, {
			"cid": 25,
			"catname": "\u7f8e\u597d\u5e97\u94fa"
		}],
		"isfollow": 0,
		"url": "http://www.baidu.com",
		"view_num": 71347,
		"follow_num": 6854
	}]
}
