{
	"success": 1,
	"tips": "\u6210\u529f\u83b7\u53d6\u6570\u636e",
	"page": 1,
	"pages": 12,
	"pagesize": 10,
	"total": 118,
	"list": [{
		"tid": 1330,
		"typeid": 5,
		"tempid": 1,
		"icon": "http://img.meishai.com/2016/0322/20160322093242287.png",
		"icon_width": 250,
		"icon_height": 130,
		"image": "http://img.meishai.com/2016/0612/20160612020415152.jpg",
		"image_width": 750,
		"image_height": 380,
		"isnew": 0,
		"title": "\u53e4\u6734\u7684\u6587\u5316\u7f8e\u611f \u7cbe\u81f4\u7684\u89c6\u89c9\u4eab\u53d7",
		"sub_title": "",
		"sub_title_color": "FFFFFF",
		"catlist": [{
			"cid": 4,
			"catname": "\u5c45\u5bb6\u65e5\u7528"
		}, {
			"cid": 25,
			"catname": "\u7f8e\u597d\u5e97\u94fa"
		}],
		"isfollow": 0,
		"url": "http://www.baidu.com",
		"view_num": 91680,
		"follow_num": 8670
	}, {
		"tid": 1328,
		"typeid": 5,
		"tempid": 1,
		"icon": "http://img.meishai.com/2016/0322/20160322093242287.png",
		"icon_width": 250,
		"icon_height": 130,
		"image": "http://img.meishai.com/2016/0602/20160602054214552.jpg",
		"image_width": 750,
		"image_height": 380,
		"isnew": 0,
		"title": "\u4e13\u4e3a\u51fa\u8272\u5de5\u4f5c\u8005\u51c6\u5907\u7684\u65f6\u5c1a\u6587\u5177",
		"sub_title": "",
		"sub_title_color": "FFFFFF",
		"catlist": [{
			"cid": 4,
			"catname": "\u5c45\u5bb6\u65e5\u7528"
		}, {
			"cid": 25,
			"catname": "\u7f8e\u597d\u5e97\u94fa"
		}],
		"isfollow": 0,
		"url": "http://www.baidu.com",
		"view_num": 54761,
		"follow_num": 5163
	}, {
		"tid": 1326,
		"typeid": 5,
		"tempid": 1,
		"icon": "http://img.meishai.com/2016/0322/20160322093242287.png",
		"icon_width": 250,
		"icon_height": 130,
		"image": "http://img.meishai.com/2016/0601/20160601040100540.jpg",
		"image_width": 750,
		"image_height": 380,
		"isnew": 0,
		"title": "\u9648\u7f50\u897f\u5f0f\u8336\u8d27\u94fa",
		"sub_title": "",
		"sub_title_color": "FFFFFF",
		"catlist": [{
			"cid": 5,
			"catname": "\u7f8e\u98df\u996e\u6599"
		}, {
			"cid": 25,
			"catname": "\u7f8e\u597d\u5e97\u94fa"
		}],
		"isfollow": 0,
		"url": "http://www.baidu.com",
		"view_num": 56240,
		"follow_num": 5343
	}, {
		"tid": 1323,
		"typeid": 5,
		"tempid": 1,
		"icon": "http://img.meishai.com/2016/0322/20160322093242287.png",
		"icon_width": 250,
		"icon_height": 130,
		"image": "http://img.meishai.com/2016/0601/20160601112321304.jpg",
		"image_width": 750,
		"image_height": 380,
		"isnew": 0,
		"title": "\u5f81\u670d\u5916\u8c8c\u534f\u4f1a\u7684\u66f2\u5947 \u4f60\u5403\u4e86\u5417\uff1f",
		"sub_title": "",
		"sub_title_color": "FFFFFF",
		"catlist": [{
			"cid": 5,
			"catname": "\u7f8e\u98df\u996e\u6599"
		}, {
			"cid": 25,
			"catname": "\u7f8e\u597d\u5e97\u94fa"
		}],
		"isfollow": 0,
		"url": "http://www.baidu.com",
		"view_num": 56452,
		"follow_num": 5269
	}, {
		"tid": 1308,
		"typeid": 5,
		"tempid": 1,
		"icon": "http://img.meishai.com/2016/0322/20160322093242287.png",
		"icon_width": 250,
		"icon_height": 130,
		"image": "http://img.meishai.com/2016/0526/20160526110011712.jpg",
		"image_width": 750,
		"image_height": 380,
		"isnew": 0,
		"title": "\u5c0f\u68ee\u8336\u96c6\u5e26\u6765\u53f0\u5f0f\u65b0\u201c\u68ee\u201d\u6d3b",
		"sub_title": "",
		"sub_title_color": "FFFFFF",
		"catlist": [{
			"cid": 5,
			"catname": "\u7f8e\u98df\u996e\u6599"
		}, {
			"cid": 25,
			"catname": "\u7f8e\u597d\u5e97\u94fa"
		}],
		"isfollow": 0,
		"url": "http://www.baidu.com",
		"view_num": 67133,
		"follow_num": 6311
	}, {
		"tid": 1294,
		"typeid": 5,
		"tempid": 1,
		"icon": "http://img.meishai.com/2016/0322/20160322093242287.png",
		"icon_width": 250,
		"icon_height": 130,
		"image": "http://img.meishai.com/2016/0520/20160520054949800.jpg",
		"image_width": 750,
		"image_height": 380,
		"isnew": 0,
		"title": "\u82f1\u56fd\u5b9e\u9a8c\u5ba4\u5947\u8da3\u7f8e\u5986",
		"sub_title": "",
		"sub_title_color": "FFFFFF",
		"catlist": [{
			"cid": 3,
			"catname": "\u7f8e\u5bb9\u62a4\u80a4"
		}, {
			"cid": 25,
			"catname": "\u7f8e\u597d\u5e97\u94fa"
		}],
		"isfollow": 0,
		"url": "http://www.baidu.com",
		"view_num": 73175,
		"follow_num": 7074
	}, {
		"tid": 1282,
		"typeid": 5,
		"tempid": 1,
		"icon": "http://img.meishai.com/2016/0322/20160322093242287.png",
		"icon_width": 250,
		"icon_height": 130,
		"image": "http://img.meishai.com/2016/0518/20160518110940817.jpg",
		"image_width": 750,
		"image_height": 380,
		"isnew": 0,
		"title": "CAFEDE KONA \u624b\u51b2\u5496\u5561\u58f6\u4ee3\u540d\u8bcd",
		"sub_title": "",
		"sub_title_color": "FFFFFF",
		"catlist": [{
			"cid": 4,
			"catname": "\u5c45\u5bb6\u65e5\u7528"
		}, {
			"cid": 25,
			"catname": "\u7f8e\u597d\u5e97\u94fa"
		}],
		"isfollow": 0,
		"url": "http://www.baidu.com",
		"view_num": 78014,
		"follow_num": 7670
	}, {
		"tid": 1284,
		"typeid": 5,
		"tempid": 1,
		"icon": "http://img.meishai.com/2016/0322/20160322093242287.png",
		"icon_width": 250,
		"icon_height": 130,
		"image": "http://img.meishai.com/2016/0517/20160517013956819.jpg",
		"image_width": 750,
		"image_height": 380,
		"isnew": 0,
		"title": "\u9910\u76d8\u7684\u989c\u503c\u548c\u7f8e\u5473\u98df\u7269\u4e00\u6837\u91cd\u8981",
		"sub_title": "",
		"sub_title_color": "FFFFFF",
		"catlist": [{
			"cid": 4,
			"catname": "\u5c45\u5bb6\u65e5\u7528"
		}, {
			"cid": 25,
			"catname": "\u7f8e\u597d\u5e97\u94fa"
		}],
		"isfollow": 0,
		"url": "http://www.baidu.com",
		"view_num": 98142,
		"follow_num": 8972
	}, {
		"tid": 1280,
		"typeid": 5,
		"tempid": 1,
		"icon": "http://img.meishai.com/2016/0322/20160322093242287.png",
		"icon_width": 250,
		"icon_height": 130,
		"image": "http://img.meishai.com/2016/0516/20160516114809623.jpg",
		"image_width": 750,
		"image_height": 380,
		"isnew": 0,
		"title": "\u628a\u6ce2\u8c31\u5929\u5929\u7a7f\u5728\u811a\u4e0a",
		"sub_title": "",
		"sub_title_color": "FFFFFF",
		"catlist": [{
			"cid": 1,
			"catname": "\u7a7f\u8863\u642d\u914d"
		}, {
			"cid": 25,
			"catname": "\u7f8e\u597d\u5e97\u94fa"
		}],
		"isfollow": 0,
		"url": "http://www.baidu.com",
		"view_num": 97237,
		"follow_num": 9083
	}, {
		"tid": 1270,
		"typeid": 5,
		"tempid": 1,
		"icon": "http://img.meishai.com/2016/0322/20160322093242287.png",
		"icon_width": 250,
		"icon_height": 130,
		"image": "http://img.meishai.com/2016/0512/20160512110636629.jpg",
		"image_width": 750,
		"image_height": 380,
		"isnew": 0,
		"title": "\u9009\u62e9\u6c90\u6d74\u7403\u7684\u6b63\u786e\u59ff\u52bf",
		"sub_title": "\u7eaf\u5929\u7136\u6c90\u6d74\u9999\u6c1b",
		"sub_title_color": "FFFFFF",
		"catlist": [{
			"cid": 3,
			"catname": "\u7f8e\u5bb9\u62a4\u80a4"
		}, {
			"cid": 25,
			"catname": "\u7f8e\u597d\u5e97\u94fa"
		}],
		"isfollow": 0,
		"url": "http://www.baidu.com",
		"view_num": 95233,
		"follow_num": 9158
	}]
}
