{
	"success": 1,
	"tips": "\u6210\u529f\u83b7\u53d6\u6570\u636e",
	"page": 1,
	"pages": 14,
	"pagesize": 10,
	"total": 131,
	"list": [{
		"tid": 1370,
		"typeid": 5,
		"tempid": 1,
		"icon": null,
		"icon_width": 250,
		"icon_height": 130,
		"image": "http://img.meishai.com/2016/0615/20160615051604629.jpg",
		"image_width": 750,
		"image_height": 380,
		"isnew": 0,
		"title": "\u590f\u5929\u96f6\u98df\u5c31\u8981\u5403\u4e0d\u80d6\u7684",
		"sub_title": "",
		"sub_title_color": "FFFFFF",
		"catlist": [{
			"cid": 5,
			"catname": "\u7f8e\u98df\u996e\u6599"
		}],
		"isfollow": 0,
		"url": "http://www.baidu.com",
		"view_num": 99506,
		"follow_num": 9275
	}, {
		"tid": 1326,
		"typeid": 5,
		"tempid": 1,
		"icon": "http://img.meishai.com/2016/0322/20160322093242287.png",
		"icon_width": 250,
		"icon_height": 130,
		"image": "http://img.meishai.com/2016/0601/20160601040100540.jpg",
		"image_width": 750,
		"image_height": 380,
		"isnew": 0,
		"title": "\u9648\u7f50\u897f\u5f0f\u8336\u8d27\u94fa",
		"sub_title": "",
		"sub_title_color": "FFFFFF",
		"catlist": [{
			"cid": 5,
			"catname": "\u7f8e\u98df\u996e\u6599"
		}, {
			"cid": 25,
			"catname": "\u7f8e\u597d\u5e97\u94fa"
		}],
		"isfollow": 0,
		"url": "http://www.baidu.com",
		"view_num": 56240,
		"follow_num": 5343
	}, {
		"tid": 1323,
		"typeid": 5,
		"tempid": 1,
		"icon": "http://img.meishai.com/2016/0322/20160322093242287.png",
		"icon_width": 250,
		"icon_height": 130,
		"image": "http://img.meishai.com/2016/0601/20160601112321304.jpg",
		"image_width": 750,
		"image_height": 380,
		"isnew": 0,
		"title": "\u5f81\u670d\u5916\u8c8c\u534f\u4f1a\u7684\u66f2\u5947 \u4f60\u5403\u4e86\u5417\uff1f",
		"sub_title": "",
		"sub_title_color": "FFFFFF",
		"catlist": [{
			"cid": 5,
			"catname": "\u7f8e\u98df\u996e\u6599"
		}, {
			"cid": 25,
			"catname": "\u7f8e\u597d\u5e97\u94fa"
		}],
		"isfollow": 0,
		"url": "http://www.baidu.com",
		"view_num": 56452,
		"follow_num": 5269
	}, {
		"tid": 1318,
		"typeid": 5,
		"tempid": 1,
		"icon": null,
		"icon_width": 250,
		"icon_height": 130,
		"image": "http://img.meishai.com/2016/0531/20160531035202789.jpg",
		"image_width": 750,
		"image_height": 380,
		"isnew": 0,
		"title": "\u67e0\u6aac\u5176\u5b83\u7684\u529f\u6548\u4f60\u77e5\u9053\u5417\uff1f",
		"sub_title": "",
		"sub_title_color": "FFFFFF",
		"catlist": [{
			"cid": 5,
			"catname": "\u7f8e\u98df\u996e\u6599"
		}],
		"isfollow": 0,
		"url": "http://www.baidu.com",
		"view_num": 58022,
		"follow_num": 5633
	}, {
		"tid": 1314,
		"typeid": 5,
		"tempid": 1,
		"icon": null,
		"icon_width": 250,
		"icon_height": 130,
		"image": "http://img.meishai.com/2016/0528/20160528043305924.jpg",
		"image_width": 750,
		"image_height": 380,
		"isnew": 0,
		"title": "\u6bcf\u5929\u4e00\u628a\u7f8e\u5473\u53c8\u517b\u751f",
		"sub_title": "",
		"sub_title_color": "FFFFFF",
		"catlist": [{
			"cid": 5,
			"catname": "\u7f8e\u98df\u996e\u6599"
		}],
		"isfollow": 0,
		"url": "http://www.baidu.com",
		"view_num": 55378,
		"follow_num": 5119
	}, {
		"tid": 1308,
		"typeid": 5,
		"tempid": 1,
		"icon": "http://img.meishai.com/2016/0322/20160322093242287.png",
		"icon_width": 250,
		"icon_height": 130,
		"image": "http://img.meishai.com/2016/0526/20160526110011712.jpg",
		"image_width": 750,
		"image_height": 380,
		"isnew": 0,
		"title": "\u5c0f\u68ee\u8336\u96c6\u5e26\u6765\u53f0\u5f0f\u65b0\u201c\u68ee\u201d\u6d3b",
		"sub_title": "",
		"sub_title_color": "FFFFFF",
		"catlist": [{
			"cid": 5,
			"catname": "\u7f8e\u98df\u996e\u6599"
		}, {
			"cid": 25,
			"catname": "\u7f8e\u597d\u5e97\u94fa"
		}],
		"isfollow": 0,
		"url": "http://www.baidu.com",
		"view_num": 67133,
		"follow_num": 6311
	}, {
		"tid": 1307,
		"typeid": 5,
		"tempid": 1,
		"icon": null,
		"icon_width": 250,
		"icon_height": 130,
		"image": "http://img.meishai.com/2016/0526/20160526111440470.jpg",
		"image_width": 750,
		"image_height": 380,
		"isnew": 0,
		"title": "\u8fd9\u4e2a\u590f\u5929\u6709\u4e86\u5b83\u624d\u53eb\u5b8c\u7f8e",
		"sub_title": "DIY\u751c\u54c1\u539f\u6599",
		"sub_title_color": "FFFFFF",
		"catlist": [{
			"cid": 5,
			"catname": "\u7f8e\u98df\u996e\u6599"
		}],
		"isfollow": 0,
		"url": "http://www.baidu.com",
		"view_num": 62251,
		"follow_num": 5844
	}, {
		"tid": 1305,
		"typeid": 5,
		"tempid": 1,
		"icon": null,
		"icon_width": 250,
		"icon_height": 130,
		"image": "http://img.meishai.com/2016/0525/20160525102121127.jpg",
		"image_width": 750,
		"image_height": 380,
		"isnew": 0,
		"title": "\u81b3\u98df\u7ea4\u7ef4    \u65e9\u9910\u7626\u8eab\u7684\u9009\u62e9",
		"sub_title": "\u71d5\u9ea6   \u725b\u5976  \u9178\u5976",
		"sub_title_color": "FFFFFF",
		"catlist": [{
			"cid": 5,
			"catname": "\u7f8e\u98df\u996e\u6599"
		}],
		"isfollow": 0,
		"url": "http://www.baidu.com",
		"view_num": 64455,
		"follow_num": 5955
	}, {
		"tid": 1303,
		"typeid": 5,
		"tempid": 1,
		"icon": null,
		"icon_width": 250,
		"icon_height": 130,
		"image": "http://img.meishai.com/2016/0524/20160524013914543.jpg",
		"image_width": 750,
		"image_height": 380,
		"isnew": 0,
		"title": "\u6e05\u65b0\u67e0\u6aac\u6765\u88ad  \u778c\u7761\u866b\u5feb\u8d70\u5f00",
		"sub_title": "",
		"sub_title_color": "FFFFFF",
		"catlist": [{
			"cid": 5,
			"catname": "\u7f8e\u98df\u996e\u6599"
		}],
		"isfollow": 0,
		"url": "http://www.baidu.com",
		"view_num": 62808,
		"follow_num": 5965
	}, {
		"tid": 1298,
		"typeid": 5,
		"tempid": 1,
		"icon": null,
		"icon_width": 250,
		"icon_height": 130,
		"image": "http://img.meishai.com/2016/0526/20160526101521655.jpg",
		"image_width": 750,
		"image_height": 380,
		"isnew": 0,
		"title": "\u5c31\u7231\u829d\u58eb\u6d53\u90c1\u67d4\u6ed1\u7684\u611f\u89c9",
		"sub_title": "\u829d\u58eb\u751c\u70b9",
		"sub_title_color": "FFFFFF",
		"catlist": [{
			"cid": 5,
			"catname": "\u7f8e\u98df\u996e\u6599"
		}],
		"isfollow": 0,
		"url": "http://www.baidu.com",
		"view_num": 61787,
		"follow_num": 6082
	}]
}
