{
	"success": 1,
	"tips": "\u6210\u529f\u83b7\u53d6\u6570\u636e",
	"page": 4,
	"pages": 12,
	"pagesize": 10,
	"total": 118,
	"list": [{
		"tid": 1214,
		"typeid": 5,
		"tempid": 1,
		"icon": "http://img.meishai.com/2016/0322/20160322093242287.png",
		"icon_width": 250,
		"icon_height": 130,
		"image": "http://img.meishai.com/2016/0423/20160423102041752.jpg",
		"image_width": 750,
		"image_height": 380,
		"isnew": 0,
		"title": "\u4e94\u4e00\u51fa\u6e38\u6652\u4e0d\u9ed1\u8fd8\u5f97\u9760\u5b83",
		"sub_title": "\u7f16\u7ec7\u8349\u5e3d",
		"sub_title_color": "FFFFFF",
		"catlist": [{
			"cid": 8,
			"catname": "\u552f\u7f8e\u9970\u54c1"
		}, {
			"cid": 25,
			"catname": "\u7f8e\u597d\u5e97\u94fa"
		}],
		"isfollow": 0,
		"url": "http://www.baidu.com",
		"view_num": 60137,
		"follow_num": 5939
	}, {
		"tid": 1202,
		"typeid": 5,
		"tempid": 1,
		"icon": "http://img.meishai.com/2016/0322/20160322093242287.png",
		"icon_width": 250,
		"icon_height": 130,
		"image": "http://img.meishai.com/2016/0420/20160420040254610.jpg",
		"image_width": 750,
		"image_height": 380,
		"isnew": 0,
		"title": "\u4e94\u4e00\u5ea6\u5047\u5e94\u8be5\u7a7f\u4ec0\u4e48\u978b",
		"sub_title": "\u539f\u521b\u4eba\u5b57\u62d6",
		"sub_title_color": "FFFFFF",
		"catlist": [{
			"cid": 2,
			"catname": "\u978b\u5b50\u5305\u5305"
		}, {
			"cid": 25,
			"catname": "\u7f8e\u597d\u5e97\u94fa"
		}],
		"isfollow": 0,
		"url": "http://www.baidu.com",
		"view_num": 67062,
		"follow_num": 6412
	}, {
		"tid": 1200,
		"typeid": 5,
		"tempid": 1,
		"icon": "http://img.meishai.com/2016/0322/20160322093242287.png",
		"icon_width": 250,
		"icon_height": 130,
		"image": "http://img.meishai.com/2016/0420/20160420024650771.jpg",
		"image_width": 750,
		"image_height": 380,
		"isnew": 0,
		"title": "\u5143\u6c14\u5c0f\u5403\u7684\u6b63\u786e\u6253\u5f00\u65b9\u5f0f",
		"sub_title": "\u88f8\u5fc3\u5b89\u5bb6",
		"sub_title_color": "FFFFFF",
		"catlist": [{
			"cid": 5,
			"catname": "\u7f8e\u98df\u996e\u6599"
		}, {
			"cid": 25,
			"catname": "\u7f8e\u597d\u5e97\u94fa"
		}],
		"isfollow": 0,
		"url": "http://www.baidu.com",
		"view_num": 75588,
		"follow_num": 7130
	}, {
		"tid": 1199,
		"typeid": 5,
		"tempid": 1,
		"icon": "http://img.meishai.com/2016/0322/20160322093242287.png",
		"icon_width": 250,
		"icon_height": 130,
		"image": "http://img.meishai.com/2016/0420/20160420103303533.jpg",
		"image_width": 750,
		"image_height": 380,
		"isnew": 0,
		"title": "\u54c1\u8d28\u751f\u6d3b  \u4ece\u65e9\u9910\u5976\u8336\u5f00\u59cb",
		"sub_title": "\u4e00\u6960\u5976\u8336",
		"sub_title_color": "FFFFFF",
		"catlist": [{
			"cid": 5,
			"catname": "\u7f8e\u98df\u996e\u6599"
		}, {
			"cid": 25,
			"catname": "\u7f8e\u597d\u5e97\u94fa"
		}],
		"isfollow": 0,
		"url": "http://www.baidu.com",
		"view_num": 78086,
		"follow_num": 7402
	}, {
		"tid": 1195,
		"typeid": 5,
		"tempid": 1,
		"icon": "http://img.meishai.com/2016/0322/20160322093242287.png",
		"icon_width": 250,
		"icon_height": 130,
		"image": "http://img.meishai.com/2016/0421/20160421094008114.jpg",
		"image_width": 750,
		"image_height": 380,
		"isnew": 0,
		"title": "\u62e5\u6709\u4e00\u4e2a\u4e0e\u4f17\u4e0d\u540c\u7684\u94b1\u5305",
		"sub_title": "Oneday",
		"sub_title_color": "FFFFFF",
		"catlist": [{
			"cid": 2,
			"catname": "\u978b\u5b50\u5305\u5305"
		}, {
			"cid": 25,
			"catname": "\u7f8e\u597d\u5e97\u94fa"
		}],
		"isfollow": 0,
		"url": "http://www.baidu.com",
		"view_num": 79610,
		"follow_num": 7478
	}, {
		"tid": 1196,
		"typeid": 5,
		"tempid": 1,
		"icon": "http://img.meishai.com/2016/0322/20160322093242287.png",
		"icon_width": 250,
		"icon_height": 130,
		"image": "http://img.meishai.com/2016/0418/20160418054259414.jpg",
		"image_width": 750,
		"image_height": 380,
		"isnew": 0,
		"title": "\u7761\u524d\u534a\u5c0f\u65f6\u7684\u5168\u65b9\u4f4d\u62a4\u7406",
		"sub_title": "\u82ac\u7814\u690d\u7269\u62a4\u7406",
		"sub_title_color": "FFFFFF",
		"catlist": [{
			"cid": 3,
			"catname": "\u7f8e\u5bb9\u62a4\u80a4"
		}, {
			"cid": 25,
			"catname": "\u7f8e\u597d\u5e97\u94fa"
		}],
		"isfollow": 0,
		"url": "http://www.baidu.com",
		"view_num": 82478,
		"follow_num": 8028
	}, {
		"tid": 1197,
		"typeid": 5,
		"tempid": 1,
		"icon": "http://img.meishai.com/2016/0322/20160322093242287.png",
		"icon_width": 250,
		"icon_height": 130,
		"image": "http://img.meishai.com/2016/0416/20160416032826262.jpg",
		"image_width": 750,
		"image_height": 380,
		"isnew": 0,
		"title": " \u7687\u540e\u5a18\u5a18\u90fd\u8ffd\u968f\u7684\u4e00\u6b3e\u6f6e\u978b",
		"sub_title": "palladium",
		"sub_title_color": "FFFFFF",
		"catlist": [{
			"cid": 2,
			"catname": "\u978b\u5b50\u5305\u5305"
		}, {
			"cid": 25,
			"catname": "\u7f8e\u597d\u5e97\u94fa"
		}],
		"isfollow": 0,
		"url": "http://www.baidu.com",
		"view_num": 81876,
		"follow_num": 7787
	}, {
		"tid": 1189,
		"typeid": 5,
		"tempid": 1,
		"icon": "http://img.meishai.com/2016/0322/20160322093242287.png",
		"icon_width": 250,
		"icon_height": 130,
		"image": "http://img.meishai.com/2016/0415/20160415033318100.jpg",
		"image_width": 750,
		"image_height": 380,
		"isnew": 0,
		"title": "\u884c\u4e5d\u4e07\u91cc\u8def \u7ec8\u5f52\u8bd7\u9152\u7530\u56ed",
		"sub_title": "\u8bd7\u9152\u7530\u56ed",
		"sub_title_color": "FFFFFF",
		"catlist": [{
			"cid": 5,
			"catname": "\u7f8e\u98df\u996e\u6599"
		}, {
			"cid": 25,
			"catname": "\u7f8e\u597d\u5e97\u94fa"
		}],
		"isfollow": 0,
		"url": "http://www.baidu.com",
		"view_num": 81465,
		"follow_num": 7765
	}, {
		"tid": 1188,
		"typeid": 5,
		"tempid": 1,
		"icon": "http://img.meishai.com/2016/0322/20160322093242287.png",
		"icon_width": 250,
		"icon_height": 130,
		"image": "http://img.meishai.com/2016/0415/20160415113953378.jpg",
		"image_width": 750,
		"image_height": 380,
		"isnew": 0,
		"title": "\u6697\u9ed1\u7cfb\u751c\u70b9 \u9ed1\u6cd5\u5e08\u7684\u8bf1\u60d1",
		"sub_title": "\u9ed1\u6cd5\u5e08",
		"sub_title_color": "FFFFFF",
		"catlist": [{
			"cid": 5,
			"catname": "\u7f8e\u98df\u996e\u6599"
		}, {
			"cid": 25,
			"catname": "\u7f8e\u597d\u5e97\u94fa"
		}],
		"isfollow": 0,
		"url": "http://www.baidu.com",
		"view_num": 78360,
		"follow_num": 7525
	}, {
		"tid": 1186,
		"typeid": 5,
		"tempid": 1,
		"icon": "http://img.meishai.com/2016/0322/20160322093242287.png",
		"icon_width": 250,
		"icon_height": 130,
		"image": "http://img.meishai.com/2016/0414/20160414044854254.jpg",
		"image_width": 750,
		"image_height": 380,
		"isnew": 0,
		"title": "\u662f\u5b83\u8ba9\u4f60\u53d8\u6210\u4e86\u6027\u611f\u5c24\u7269",
		"sub_title": "\u597d\u5947\u5c0f\u59d0\u7684\u5185\u8863\u5e97",
		"sub_title_color": "FFFFFF",
		"catlist": [{
			"cid": 1,
			"catname": "\u7a7f\u8863\u642d\u914d"
		}, {
			"cid": 25,
			"catname": "\u7f8e\u597d\u5e97\u94fa"
		}],
		"isfollow": 0,
		"url": "http://www.baidu.com",
		"view_num": 75224,
		"follow_num": 7229
	}]
}
