{
	"success": 1,
	"tips": "\u6210\u529f\u83b7\u53d6\u6570\u636e",
	"page": 1,
	"pages": 181,
	"pagesize": 10,
	"total": 1809,
	"slide": [{
		"type": "h5",
		"tempid": 0,
		"image": "http://img.meishai.com/2016/0708/20160708112806508.png",
		"image_width": 750,
		"image_height": 380,
		"value": "&gid=5980",
		"h5data": {
			"islogin": 1,
			"controller": "mall",
			"action": "show",
			"parameter": "&gid=5980",
			"userid": 0
		}
	}, {
		"type": "h5",
		"tempid": 0,
		"image": "http://img.meishai.com/2016/0708/20160708112525980.png",
		"image_width": 750,
		"image_height": 380,
		"value": "&gid=5771",
		"h5data": {
			"islogin": 1,
			"controller": "mall",
			"action": "show",
			"parameter": "&gid=5771",
			"userid": 0
		}
	}],
	"application": [{
		"type": "h5",
		"tempid": 0,
		"image": "http://img.meishai.com/2016/0321/20160321065543291.png",
		"image_width": 150,
		"image_height": 150,
		"text": "\u7b7e\u5230\u6709\u793c",
		"value": "",
		"h5data": {
			"islogin": 1,
			"controller": "app",
			"action": "sign",
			"parameter": "",
			"userid": 0
		}
	}, {
		"type": "h5",
		"tempid": 0,
		"image": "http://img.meishai.com/2016/0321/20160321070557663.png",
		"image_width": 150,
		"image_height": 150,
		"text": "\u8fbe\u4eba\u4ff1\u4e50\u90e8",
		"value": "",
		"h5data": {
			"islogin": 1,
			"controller": "app",
			"action": "meiclub",
			"parameter": "",
			"userid": 0
		}
	}, {
		"type": "h5",
		"tempid": 0,
		"image": "http://img.meishai.com/2016/0321/20160321070657519.png",
		"image_width": 150,
		"image_height": 150,
		"text": "\u9080\u8bf7\u6709\u5956",
		"value": "",
		"h5data": {
			"islogin": 1,
			"controller": "app",
			"action": "invite",
			"parameter": "",
			"userid": 0
		}
	}, {
		"type": "g_list",
		"tempid": 0,
		"image": "http://img.meishai.com/2016/0321/20160321071338908.png",
		"image_width": 150,
		"image_height": 150,
		"text": "\u7cbe\u9009\u7f8e\u7269",
		"value": "",
		"h5data": {
			"islogin": 0,
			"controller": "",
			"action": "",
			"parameter": "",
			"userid": 0
		}
	}, {
		"type": "m_create",
		"tempid": 0,
		"image": "http://img.meishai.com/2016/0321/20160321071600311.png",
		"image_width": 150,
		"image_height": 150,
		"text": "\u6211\u8981\u7206\u6599",
		"value": "",
		"h5data": {
			"islogin": 0,
			"controller": "",
			"action": "",
			"parameter": "",
			"userid": 0
		}
	}],
	"topic": {
		"text": "\u70ed\u95e8\u6d3b\u52a8",
		"more": "\u66f4\u591a",
		"topicdata": [{
			"type": "m_show",
			"tempid": 1,
			"image": "http://img.meishai.com/2016/0615/20160615113939324.jpg",
			"image_width": 330,
			"image_height": 330,
			"value": "1330",
			"h5data": {
				"islogin": 0,
				"controller": "",
				"action": "",
				"parameter": "1330",
				"userid": 0
			}
		}, {
			"type": "m_show",
			"tempid": 1,
			"image": "http://img.meishai.com/2016/0613/20160613091529405.jpg",
			"image_width": 330,
			"image_height": 330,
			"value": "1326",
			"h5data": {
				"islogin": 0,
				"controller": "",
				"action": "",
				"parameter": "1326",
				"userid": 0
			}
		}, {
			"type": "m_show",
			"tempid": 1,
			"image": "http://img.meishai.com/2016/0613/20160613092155582.jpg",
			"image_width": 330,
			"image_height": 330,
			"value": "1323",
			"h5data": {
				"islogin": 0,
				"controller": "",
				"action": "",
				"parameter": "1323",
				"userid": 0
			}
		}, {
			"type": "m_show",
			"tempid": 1,
			"image": "http://img.meishai.com/2016/0613/20160613091550758.jpg",
			"image_width": 330,
			"image_height": 330,
			"value": "1328",
			"h5data": {
				"islogin": 0,
				"controller": "",
				"action": "",
				"parameter": "1328",
				"userid": 0
			}
		}, {
			"type": "m_show",
			"tempid": 1,
			"image": "http://img.meishai.com/2016/0602/20160602041732391.jpg",
			"image_width": 330,
			"image_height": 330,
			"value": "1309",
			"h5data": {
				"islogin": 0,
				"controller": "",
				"action": "",
				"parameter": "1309",
				"userid": 0
			}
		}, {
			"type": "m_show",
			"tempid": 1,
			"image": "http://img.meishai.com/2016/0602/20160602041712792.jpg",
			"image_width": 330,
			"image_height": 330,
			"value": "1308",
			"h5data": {
				"islogin": 0,
				"controller": "",
				"action": "",
				"parameter": "1308",
				"userid": 0
			}
		}, {
			"type": "m_show",
			"tempid": 1,
			"image": "http://img.meishai.com/2016/0531/20160531103257249.jpg",
			"image_width": 330,
			"image_height": 330,
			"value": "1294",
			"h5data": {
				"islogin": 0,
				"controller": "",
				"action": "",
				"parameter": "1294",
				"userid": 0
			}
		}, {
			"type": "m_show",
			"tempid": 1,
			"image": "http://img.meishai.com/2016/0606/20160606044215208.jpg",
			"image_width": 330,
			"image_height": 330,
			"value": "1284",
			"h5data": {
				"islogin": 0,
				"controller": "",
				"action": "",
				"parameter": "1284",
				"userid": 0
			}
		}]
	},
	"item": null,
	"daren": null,
	"meiwu": null,
	"sharedata": {
		"title": "\u7f8e\u6652-\u5c0f\u8d44\u751f\u6d3b\u7684\u5f00\u59cb",
		"pic": "http://img.meishai.com/2015/1016/20151016022239464.png",
		"content": "\u6211\u53d1\u73b0\u4e86\u4e00\u4e2a\u5f88\u4e0d\u9519\u7684APP",
		"url": "http://www.meishai.com/"
	},
	"list": [{
		"pid": 140441,
		"isurl": null,
		"url": null,
		"userdata": {
			"userid": 81421,
			"avatar": "http://img.meishai.com/avatar/9/2/81421/90x90.jpg",
			"username": "VIVIENROSE001",
			"isdaren": 0,
			"group_name": "V1\u4f1a\u5458",
			"group_bgcolor": "71D14B",
			"isattention": 0
		},
		"postdata": {
			"addtime": "1605\u6b21\u6d4f\u89c8",
			"pic_url": "http://img.meishai.com/2016/0818/20160818041721514.jpg",
			"pic_width": 640,
			"pic_height": 640,
			"description": "CPB\u6d17\u9762\u818f\u662f\u4e00\u6b3e\u6e29\u548c\u67d4\u6da6\u7684\u6d01\u9762\u818f\uff0c\u548cSK-II\u7684\u5dee\u4e0d\u591a\uff0c\u90fd\u5f88\u597d\u7528\u3002\u5b83\u542b\u6c28\u57fa\u9178\u6d01\u9762\u6ce1\u6cab\uff0c\u6e29\u548c\u5730\u6eb6\u89e3\u6c61\u57a2\u3001\u6cb9\u8102\u548c\u6742\u8d28\uff0c\u6d01\u9762\u540e\u6c34\u4efd\u4ecd\u4e0d\u4f1a\u6d41\u5931\uff0c\u51b2\u6d17\u540e\u4e0d\u4f1a\u6709\u4efb\u4f55\u6b8b\u7559\u3002 \u5b83\u7684\u9999\u5473\u5f88\u597d\u95fb\uff0c\u4f18\u96c5\u9ad8\u8d35\u3002\u52a0\u6c34\u540e\uff0c\u53ef\u4ee5\u4ea7\u751f\u4e30\u6da6\u4e1d\u6ed1\u7684\u6ce1\u6cab\uff0c\u80fd\u591f\u8f7b\u677e\u5e26\u8d70\u5f69\u5986\u3001\u6742\u8d28\u548c\u9762\u90e8\u591a\u4f59\u6cb9\u6c61\u3002 \u6e7f\u6da6\u578b\u9002\u5408\u4e2d\u6027\u504f\u5e72\u80a4\u8d28\uff0c\u6e05\u723d\u578b\u9002\u5408\u4e2d\u6027\u504f\u6cb9\u80a4\u8d28\u3002",
			"iszan": 0,
			"isfav": 0,
			"islink": 0,
			"istao": 1,
			"link": "0",
			"view_num": 1605,
			"zan_num": 20,
			"fav_num": 1,
			"com_num": 8
		},
		"topicdata": [{
			"tid": 2,
			"title": "\u6652\u62a4\u80a4"
		}]
	}, {
		"pid": 140429,
		"isurl": null,
		"url": null,
		"userdata": {
			"userid": 79839,
			"avatar": "http://img.meishai.com/avatar/8/10/79839/90x90.jpg",
			"username": "pauiovelena_\u4e03\u4e03",
			"isdaren": 0,
			"group_name": "V1\u4f1a\u5458",
			"group_bgcolor": "71D14B",
			"isattention": 0
		},
		"postdata": {
			"addtime": "410\u6b21\u6d4f\u89c8",
			"pic_url": "http://img.meishai.com/2016/0817/20160817050007104.jpg",
			"pic_width": 750,
			"pic_height": 750,
			"description": "\u26a1\ufe0f\u590f\u5929\u5fc5\u5907\u26a1\ufe0f&mdash;&mdash;KOWA\u6b62\u75d2\u6db2\uff0c\u65e0\u6bd4\u6ef4\u611f\u89c9\u6bcf\u5e74\u590f\u5929\u6700\u607c\u4eba\u7684\u4e00\u4e2a\u662f\u70ed\uff0c\u4e00\u4e2a\u5c31\u662f\u868a\u5b50\u4e86\uff01\u800c\u4e14\u50cf\u6211\u4eec\u8fd9\u79cd\u4f53\u8868\u89e6\u611f\u4e3a\u96f6\u7684\u4eba\uff0c\u868a\u5b50\u54ac\u6211\u771f\u7684\u4e0d\u77e5\u9053\u554a\uff01\u7136\u540e\u5c31\u662f\u4e00\u4e2a\u5927\u5305\uff0c\u5947\u75d2\u65e0\u6bd4\uff0c\u800c\u4e14\u611f\u89c9\u73b0\u5728\u6bd2\u868a\u5b50\u597d\u591a\uff0c\u90fd\u662f\u5c0f\u5c0f\u7684\u4e00\u4e2a\u70b9\uff0c\u4f46\u662f\u8981\u4e00\u4e2a\u6708\u624d\u80fd\u6d88\u4e0b\u53bb\u3002&hellip;\u524d\u9635\u5b50\u5b9e\u4e60\u592a\u8f9b\u82e6\uff0c\u514d\u75ab\u529b\u4e0b\u964d\uff0c\u5bfc\u81f4\u6211\u76ae\u80a4\u8fc7\u654f\u4e25\u91cd\uff0c\u6211\u771f\u7684\u4ece\u5c0f\u5230\u5927\u8fd8\u6ca1\u76ae\u80a4\u8fc7\u654f\u8fc7\u51e0\u6b21\uff0c\u624b\u8098\u5305\u62ec\u5176\u4ed6\u5730\u65b9\u7279\u522b\u75d2\uff0c\u4e00\u6320\u5c31\u8d77\u5c0f\u7ea2\u7599\u7629\uff0c\u8fd9\u4e2a\u65f6\u5019\u5c31\u9700\u8981\u7528\u5230\u6b62\u75d2\u795e\u5668\u5566\uff01&hellip;...",
			"iszan": 0,
			"isfav": 0,
			"islink": 0,
			"istao": 1,
			"link": "0",
			"view_num": 410,
			"zan_num": 14,
			"fav_num": 0,
			"com_num": 5
		},
		"topicdata": [{
			"tid": 2,
			"title": "\u6652\u62a4\u80a4"
		}]
	}, {
		"pid": 140431,
		"isurl": null,
		"url": null,
		"userdata": {
			"userid": 81444,
			"avatar": "http://img.meishai.com/avatar/9/2/81444/90x90.jpg",
			"username": "\u6708\u513f\u565c",
			"isdaren": 0,
			"group_name": "V1\u4f1a\u5458",
			"group_bgcolor": "71D14B",
			"isattention": 0
		},
		"postdata": {
			"addtime": "470\u6b21\u6d4f\u89c8",
			"pic_url": "http://img.meishai.com/2016/0817/20160817060144477.jpg",
			"pic_width": 750,
			"pic_height": 750,
			"description": "\u7fbd\u897f\u4eba\u53c2\u5851\u989c\u6ecb\u517b\u665a\u5b89\u9762\u819c&mdash;&mdash;\u7761\u7720\u9762\u819c\u662f\u61d2\u4eba\u7684\u6700\u7231\uff0c\u590f\u5929\u76ae\u80a4\u5e72\u71e5\uff0c\u66f4\u662f\u9700\u8981\u8865\u6c34\uff0c\u7fbd\u897f\u4eba\u53c2\u6ecb\u517b\u7761\u7720\u9762\u819c\u662f\u4e00\u6b3e\u7279\u522b\u9002\u5408\u590f\u5b63\u4f7f\u7528\u7684\u9762\u819c\uff0c\u5c24\u5176\u662f\u653e\u5728\u51b0\u7bb1\u91cc\u4fdd\u9c9c\u540e\u6d82\u5728\u8138\u4e0a\u66f4\u662f\u4e00\u79cd\u4eab\u53d7\uff0c\u7fbd\u897f\u4e13\u5fc3\u4e8e\u4e2d\u533b\u7f8e\u5bb9\u62a4\u80a4\uff0c\u5d07\u5c1a\u81ea\u7136\u7684\u54c1\u724c\uff0c\u5b83\u7ed3\u540820\u591a\u5e74\u6765\u5bf9\u4e2d\u56fd\u5973\u6027\u808c\u80a4\u7684\u7814\u7a76\uff0c\u81f4\u529b\u4e8e\u4f20\u7edf\u4e2d\u836f\u5728\u73b0\u4ee3\u7f8e\u5bb9\u9886\u57df\u7684\u521b\u65b0\u3002\u5b83\u7684\u4e13\u4e1a\u5b9e\u9a8c\u5ba4\u4ece\u53e4\u4ee3\u7f8e\u5bb9\u79d8\u65b9\u4e2d\uff0c\u7504\u9009\u540d\u8d35\u4e2d\u836f\u6210\u5206\uff0c\u7075\u829d\u3001\u866b\u8349\u3001\u4eba\u53c2\u3001\u8336\u6811\u3001\u96ea\u8033\u7b49\u7b49\u73cd\u8d35\u7684\u7cbe\u534e\uff0c\u518d\u7ed3\u5408\u73b0\u4ee3\u7684\u9ad8\u79d1\u6280...",
			"iszan": 0,
			"isfav": 0,
			"islink": 0,
			"istao": 1,
			"link": "0",
			"view_num": 470,
			"zan_num": 15,
			"fav_num": 0,
			"com_num": 5
		},
		"topicdata": [{
			"tid": 7,
			"title": "\u6652\u5bb6\u5c45\u65e5\u7528"
		}, {
			"tid": 2,
			"title": "\u6652\u62a4\u80a4"
		}]
	}, {
		"pid": 140432,
		"isurl": null,
		"url": null,
		"userdata": {
			"userid": 82450,
			"avatar": "http://img.meishai.com/avatar/9/3/82450/90x90.jpg",
			"username": "\u65cb\u65cb\u6728\u6728",
			"isdaren": 0,
			"group_name": "V1\u4f1a\u5458",
			"group_bgcolor": "71D14B",
			"isattention": 0
		},
		"postdata": {
			"addtime": "417\u6b21\u6d4f\u89c8",
			"pic_url": "http://img.meishai.com/2016/0817/20160817090417275.jpg",
			"pic_width": 750,
			"pic_height": 750,
			"description": "\u4ee5&amp;quot\u4e00\u7f50\u5c31\u65ad\u7247&amp;quot\u51fa\u540d..\u6700\u8fd1\u7f51\u7edc\u5927\u7ea2\u5927\u7d2b\u7684\u65ad\u7247\u9152\u4e5f\u79f0\u5931\u8eab\u9152..\u672c\u7740\u8bd5\u8bd5\u7684\u6001\u5ea6\u5165\u4e86\u4e00\u74f6\u8349\u8393\u67e0\u6aac\u5473\u7684\uff0c\u6211\u4e0d\u60f3\u8bf4\u8bdd\u4e86\uff0c\u9152\u52b2\u6709\u70b9\u5927\uff0c\u5bb9\u6211\u7761\u4f1a\uff01FourLoko\u6765\u81ea\u7f8e\u56fd\u542b\u6709\u5496\u5561\u56e0\u53ca\u9152\u7cbe\uff0c10\u79cd\u6c34\u679c\u53e3\u5473..\u5305\u62ec\u8461\u8404\uff0c\u67d1\u6a58\uff0c\u897f\u74dc\uff0c\u6df7\u5408\u6c34\u679c\uff0c\u82f9\u679c\uff0c\u8292\u679c\uff0c\u9ed1\u6a31\u6843\uff0c\u8349\u8393\u67e0\u6aac\uff0c\u871c\u6843\u548c\u67e0\u6aac\u3002\u3002\u636e\u8bf4\u4e00\u7f50Four Loko=\u516d\u74f6\u767e\u5a01..!\u65ad\u7247\u5b9e\u529b\u9ad8\u8fbe100%..!\u9152\u91cf\u591a\u5927\u7167\u6837\u653e\u5012\u4f60\uff01\u5fc3\u52a8\u4e48\uff0c\u53ef\u4ee5\u8bd5\u8bd5\u5566\uff0c\u6211\u4e0d\u592a\u559c\u6b22\u559d\u9152\uff0c\u4e5f\u4e0d\u559c\u6b22\u78b3\u9178\u6c14\u6ce1\uff0c\u6240\u4ee5\u4e5f\u6ca1...",
			"iszan": 0,
			"isfav": 0,
			"islink": 0,
			"istao": 1,
			"link": "0",
			"view_num": 417,
			"zan_num": 13,
			"fav_num": 1,
			"com_num": 5
		},
		"topicdata": [{
			"tid": 18,
			"title": "\u6652\u96f6\u98df"
		}, {
			"tid": 7,
			"title": "\u6652\u5bb6\u5c45\u65e5\u7528"
		}]
	}, {
		"pid": 140433,
		"isurl": null,
		"url": null,
		"userdata": {
			"userid": 81421,
			"avatar": "http://img.meishai.com/avatar/9/2/81421/90x90.jpg",
			"username": "VIVIENROSE001",
			"isdaren": 0,
			"group_name": "V1\u4f1a\u5458",
			"group_bgcolor": "71D14B",
			"isattention": 0
		},
		"postdata": {
			"addtime": "398\u6b21\u6d4f\u89c8",
			"pic_url": "http://img.meishai.com/2016/0817/20160817092042243.jpg",
			"pic_width": 640,
			"pic_height": 640,
			"description": "\u5b89\u5a1c\u82cf\u9650\u5b9a\u8537\u8587\u6212\u6307\u5507\u818f\u662f300\u53f7\u7684\uff0c\u4ee5\u524d\u8fd8\u6709\u4e00\u79cd\u5706\u5f62\u8537\u8587\u7684\u6212\u6307\uff0c\u65b9\u5f62\u7684\u6212\u6307\u662f\u540e\u51fa\u7684\u3002300\u53f7\u662f\u7f8e\u4e3d\u7684\u67d4\u7c89\u8272\uff0c\u5473\u9053\u9999\u9999\u7684\uff0c\u7279\u522b\u597d\u95fb\u3002\u6211\u7528\u5507\u5237\u6765\u4e0a\u8272\uff0c\u4e00\u6b21\u5c31\u7528\u6389\u4e0d\u5c11\u3002\u56e0\u4e3a\u5b83\u53ea\u6709\u4e00\u514b\uff0c\u6240\u4ee5\u7ecf\u5e38\u7528\u7684\u8bdd\uff0c\u4e00\u4e2a\u6708\u80af\u5b9a\u80fd\u7528\u5b8c\u3002\u5b83\u7684\u6ecb\u6da6\u5ea6\u5f88\u597d\uff0c\u4e0a\u8272\u5747\u5300\u5ea6\u4e00\u822c\u5427\uff0c\u7528\u7eb8\u5dfe\u64e6\u4e00\u4e0b\u5c31\u53ef\u4ee5\u5378\u6389\u3002\u603b\u4f53\u800c\u8a00\uff0c\u8fd8\u662f\u5f88\u559c\u6b22\u55d2\uff0c\u7528\u5b8c\u4ee5\u540e\u53ef\u4ee5\u5f53\u5c0f\u9970\u54c1\u4f7f\u7528\u3002",
			"iszan": 0,
			"isfav": 0,
			"islink": 0,
			"istao": 1,
			"link": "0",
			"view_num": 398,
			"zan_num": 12,
			"fav_num": 0,
			"com_num": 7
		},
		"topicdata": [{
			"tid": 3,
			"title": "\u6652\u5f69\u5986"
		}]
	}, {
		"pid": 140164,
		"isurl": null,
		"url": null,
		"userdata": {
			"userid": 81548,
			"avatar": "http://img.meishai.com/avatar/9/2/81548/90x90.jpg",
			"username": "Roy1",
			"isdaren": 0,
			"group_name": "V1\u4f1a\u5458",
			"group_bgcolor": "71D14B",
			"isattention": 0
		},
		"postdata": {
			"addtime": "337\u6b21\u6d4f\u89c8",
			"pic_url": "http://img.meishai.com/2016/0804/20160804125940112.jpg",
			"pic_width": 750,
			"pic_height": 750,
			"description": "1\u3001\u7b80\u7ea6\u5361\u901a\u9676\u74f7\u676f\u5b50\u9996\u5148\uff0c\u8fd9\u6b3e\u5149\u6ed1\u6da6\u6cfd\u7684\u676f\u5b50\uff0c\u642d\u914d\u7740\u53ef\u7231\u7684\u52a8\u7269\u56fe\u6848\uff0c\u770b\u5230\u5b83\u7ed9\u6211\u7684\u7b2c\u4e00\u611f\u89c9\u5c31\u662f\u5e26\u7740\u6d53\u90c1\u7684\u840c\u98ce\u88ad\u9762\u800c\u6765\uff01\u7136\u540e\uff0c\u5149\u6ed1\u6da6\u6cfd\u7684\u676f\u8eab\uff0c\u5370\u6709\u5361\u901a\u56fe\u6848\uff0c\u53ef\u4ee5\u8ba9\u6211\u4eec\u559d\u6c34\u66f4\u6696\u5fc3\uff0c\u66f4\u4f53\u8d34\uff0c\u4e5f\u53ef\u4ee5\u8ba9\u8fd9\u4e48\u53ef\u7231\u7684\u52a8\u7269\u56fe\u6848\u966a\u6211\u4eec\u559d\u6bcf\u4e00\u676f\u6c34\u3002\u518d\u7136\u540e\uff0c\u676f\u53e3\u662f\u7ecf\u8fc7\u7cbe\u7ec6\u6253\u78e8\u7684\uff0c\u5706\u6da6\u5149\u6ed1\uff0c\u65e0\u5f02\u5473\uff0c\u66f4\u5065\u5eb7\uff0c\u4e5f\u66f4\u5b89\u5168\uff01\u800c\u676f\u5e95\u662f\u7ecf\u8fc7\u591a\u6b21\u78e8\u5e73\u7684\uff0c\u6240\u4ee5\u676f\u8eab\u66f4\u7a33\u91cd\uff0c\u53ef\u4ee5\u6709\u6548\u7684\u9632\u6b62\u56e0\u78b0\u649e\u800c\u5bfc\u81f4\u4fa7\u7ffb\u3002\u6240\u4ee5\u5b83\u4e0d\u4ec5\u65f6\u5c1a\u7f8e\u89c2\u7a33\u91cd\u800c\u4e14\u6211...",
			"iszan": 0,
			"isfav": 0,
			"islink": 0,
			"istao": 1,
			"link": "0",
			"view_num": 337,
			"zan_num": 24,
			"fav_num": 0,
			"com_num": 6
		},
		"topicdata": [{
			"tid": 7,
			"title": "\u6652\u5bb6\u5c45\u65e5\u7528"
		}]
	}, {
		"pid": 140333,
		"isurl": null,
		"url": null,
		"userdata": {
			"userid": 79839,
			"avatar": "http://img.meishai.com/avatar/8/10/79839/90x90.jpg",
			"username": "pauiovelena_\u4e03\u4e03",
			"isdaren": 0,
			"group_name": "V1\u4f1a\u5458",
			"group_bgcolor": "71D14B",
			"isattention": 0
		},
		"postdata": {
			"addtime": "285\u6b21\u6d4f\u89c8",
			"pic_url": "http://img.meishai.com/2016/0812/20160812024007538.jpg",
			"pic_width": 750,
			"pic_height": 750,
			"description": "\u26a1\ufe0f\u62d2\u7edd\u6d6e\u80bf\u773c\u26a1\ufe0f&mdash;&mdash;abeeco\u7d27\u81f4\u660e\u7738\u773c\u971c\u26a1\ufe0f\u6211\u6700\u8fd1\u771f\u7684\u662f\u5165\u4e86\u597d\u591a\u91d1\u5149\u95ea\u95ea\u7684\u62a4\u80a4\u54c1\uff0c\u611f\u89c9\u8fd9\u65e5\u5b50\u8fc7\u7684\u90fd\u8ddf\u5c0f\u8d35\u5987\u4f3c\u7684\u3002\u4ee5\u524d\u7528\u8fc7abeeco\u7684\u8702\u6bd2\u9762\u819c \u3002\u89c9\u5f97\u6548\u679c\u8fd8\u4e0d\u9519 \uff0c\u539f\u6765\u7528\u7684\u773c\u971c\u5feb\u7528\u5b8c\u4e86 \u3002\u4f46\u662f\u8fd8\u6ca1\u611f\u89c9\u5230\u660e\u663e\u7684\u6548\u679c \uff0c\u6240\u4ee5\u8fd9\u6b21\u5c31\u8bd5\u4e86\u8bd5abeeco\u7684\u773c\u971c \u3002\u6ca1\u60f3\u5230\u6548\u679c\u8fd8\u4e0d\u9519 \uff0c\u5c24\u5176\u662f\u5728\u53bb\u6d6e\u80bf\u548c\u4fdd\u6e7f\u7684\u6548\u679c\u7279\u522b\u597d\uff0c \u6211\u662f\u4e00\u4e2a\u7761\u524d\u7279\u522b\u7231\u559d\u6c34\u7684\u4eba\uff0c\u5bfc\u81f4\u65e9\u4e0a\u8d77\u6765\u773c\u775b\u90fd\u5f88\u80bf\u3002\u6bcf\u5929\u65e9\u4e0a\u7528\u5b83\u7684\u65f6\u5019\u597d\u597d\u6309\u6469\u6309\u6469\u773c\u5468 \uff0c\u6d6e\u80bf\u80fd...",
			"iszan": 0,
			"isfav": 0,
			"islink": 0,
			"istao": 1,
			"link": "0",
			"view_num": 285,
			"zan_num": 12,
			"fav_num": 0,
			"com_num": 7
		},
		"topicdata": [{
			"tid": 2,
			"title": "\u6652\u62a4\u80a4"
		}]
	}, {
		"pid": 140349,
		"isurl": null,
		"url": null,
		"userdata": {
			"userid": 83677,
			"avatar": "http://img.meishai.com/avatar/9/4/83677/90x90.jpg",
			"username": "Jn\u4e36",
			"isdaren": 0,
			"group_name": "V1\u4f1a\u5458",
			"group_bgcolor": "71D14B",
			"isattention": 0
		},
		"postdata": {
			"addtime": "209\u6b21\u6d4f\u89c8",
			"pic_url": "http://img.meishai.com/2016/0813/20160813103039421.jpg",
			"pic_width": 750,
			"pic_height": 750,
			"description": "\u60a6\u8bd7\u98ce\u541f\u77ff\u7269\u95ea\u4eae\u73e0\u5149\u5986\u524d\u5f53\u65f6\u542c\u5bfc\u8d2d\u5458\u4e00\u76f4\u63a8\u8350\u63a8\u8350\u5165\u7684\u3002\u672c\u4ee5\u4e3a\u5c31\u662f\u900f\u660e\u7684\u5986\u524d\u6765\u7740\u3002\u7ed3\u679c\u4e00\u6d82\u5168\u8138\u73e0\u5149\u95ea\u8ddfvdl\u7684\u8d1d\u58f3\u63d0\u4eae\u6db2\u6027\u8d28\u5dee\u4e0d\u591a\u3002\u9694\u79bb\u540e\u3001\u5728\u9700\u8981\u63d0\u4eae\u90e8\u5206\u6d82\u62b9\uff0c\u8f7b\u8f7b\u62cd\u6253\u81f3\u5438\u6536\uff0c\u518d\u540e\u7eed\u5e95\u5986\u90e8\u5206\u3002\u8fd9\u6837\u51fa\u6765\u7684\u5986\u5bb9\u4f1a\u6bd4\u8f83\u81ea\u7136\u63d0\u4eae\u3002\u4e0d\u4f1a\u592a\u7a81\u5140\u3002",
			"iszan": 0,
			"isfav": 0,
			"islink": 0,
			"istao": 1,
			"link": "0",
			"view_num": 209,
			"zan_num": 14,
			"fav_num": 0,
			"com_num": 4
		},
		"topicdata": [{
			"tid": 3,
			"title": "\u6652\u5f69\u5986"
		}]
	}, {
		"pid": 140337,
		"isurl": null,
		"url": null,
		"userdata": {
			"userid": 81421,
			"avatar": "http://img.meishai.com/avatar/9/2/81421/90x90.jpg",
			"username": "VIVIENROSE001",
			"isdaren": 0,
			"group_name": "V1\u4f1a\u5458",
			"group_bgcolor": "71D14B",
			"isattention": 0
		},
		"postdata": {
			"addtime": "271\u6b21\u6d4f\u89c8",
			"pic_url": "http://img.meishai.com/2016/0812/20160812043538822.jpg",
			"pic_width": 640,
			"pic_height": 640,
			"description": "\u5229\u91c7\u73cd\u73e0\u795b\u75d8\u7f8e\u808c\u971c\uff0c\u4ea7\u5730\u662f\u9999\u6e2f\uff0c\u542b\u6709\u73cd\u73e0\u548c\u5f88\u591a\u4e2d\u836f\u6210\u5206\uff0c\u96f6\u6fc0\u7d20\uff0c\u4f7f\u7528\u8d77\u6765\u5b89\u5168\u5b89\u5fc3\u3002\u9644\u9001\u4e86\u4e00\u652f\u5229\u91c7\u672c\u8349\u795b\u75d8\u6e05\u989c\u6d01\u9762\u4e73\u3002\u8fd9\u6b3e\u6d01\u9762\u4e73\u8d77\u6ce1\u91cf\u6b63\u5e38\uff0c\u6d17\u611f\u6e29\u548c\u8212\u9002\uff0c\u6709\u4e00\u4e1d\u6e05\u65b0\u7684\u51c9\u610f\uff0c\u6d17\u540e\u7684\u808c\u80a4\u5f88\u8212\u9002\u3002\u4f7f\u7528\u540e\uff0c\u808c\u80a4\u6c34\u6da6\u67d4\u6ed1\uff0c\u4e0d\u7d27\u7ef7\u3002\u5229\u91c7\u73cd\u73e0\u795b\u75d8\u7f8e\u808c\u971c\uff0c\u8fd9\u6b3e\u662f\u8bd5\u7528\u88c5\uff0c\u53ea\u6709\u4e00\u70b9\u70b9\uff0c\u4e0d\u8fc7\u6b63\u88c5\u4e5f\u624d15\u6beb\u5347\u3002\u818f\u4f53\u662f\u6de1\u6de1\u7c89\u8272\u7684\uff0c\u770b\u8d77\u6765\u6709\u70b9\u7a20\uff0c\u9999\u5473\u5f88\u5929\u7136\u3002\u6bcf\u6b21\u53d6\u5c11\u91cf\u5373\u53ef\uff0c\u6162\u6162\u6d82\u62b9\u5747\u5300\u3002\u4f7f\u7528\u540e\uff0c\u808c\u80a4\u4e00\u70b9\u4e5f\u4e0d\u6cb9\u817b\uff0c\u5438\u6536\u6548\u679c\u5f88\u597d...",
			"iszan": 0,
			"isfav": 0,
			"islink": 0,
			"istao": 1,
			"link": "0",
			"view_num": 271,
			"zan_num": 16,
			"fav_num": 0,
			"com_num": 6
		},
		"topicdata": [{
			"tid": 2,
			"title": "\u6652\u62a4\u80a4"
		}]
	}, {
		"pid": 140336,
		"isurl": null,
		"url": null,
		"userdata": {
			"userid": 80690,
			"avatar": "http://img.meishai.com/avatar/9/1/80690/90x90.jpg",
			"username": "\u5154\u51e0\u83ccSS_",
			"isdaren": 0,
			"group_name": "V1\u4f1a\u5458",
			"group_bgcolor": "71D14B",
			"isattention": 0
		},
		"postdata": {
			"addtime": "220\u6b21\u6d4f\u89c8",
			"pic_url": "http://img.meishai.com/2016/0812/20160812042141708.jpg",
			"pic_width": 640,
			"pic_height": 640,
			"description": "\u5206\u4eab\u4e0b\u7b80\u5355\u7684\u65e5\u5e38\u5986\u5bb9\u26a1\ufe0f\u5e95\u5986\uff1a\u5723\u7f57\u5170\u6052\u4e45\u5b8c\u7f8e\u6c14\u57ab\u7c89\u997c10\u8272\u53f7\uff5e\u8f7b\u8f7b\u62cd\u6253\u5c31\u662f\u8f7b\u8584\u7684\u96fe\u9762\u5986\u5bb9\uff0c\u906e\u7455\u6548\u679c\u4e00\u822c\uff0c\u4fdd\u6e7f\u7a0b\u5ea6\u5f88\u597d\uff5e\u57fa\u672c\u4e0d\u4f1a\u8131\u5986\uff0c\u7c89\u997c\u5e26\u6709\u6de1\u6de1\u7684\u9999\u5473\uff5e\u6700\u7231\u7684\u5e95\u5986\u7528\u54c1\u5566\uff5e\u26a1\ufe0f\u816e\u7ea2\uff1a\u8d85\u5e73\u4ef7\u7684canmake\u82b1\u74e3\u816e\u7ea2\u548c\u816e\u7ea2\u818f\uff0c\u6211\u4f1a\u53e0\u52a0\u7740\u6765\u6d82\u62b9\uff5e\u6548\u679c\u66f4\u52a0\u7c89\u5ae9\u5462\u3002\u538b\u7c89\u4e0d\u592a\u7d27\u5b9e\uff0c\u5076\u5c14\u4f1a\u98de\u7c89\uff0c\u6301\u4e45\u5ea6\u9ad8\uff0c\u5c5e\u4e8e\u6211\u8fd9\u79cd\u5316\u5986\u65b0\u624b\u5fc5\u5907\u5566\uff5e\u26a1\ufe0f\u5b9a\u5986\uff1ainnisfree\u8584\u8377\u6563\u7c89\uff5e\u5e73\u4ef7\u4e2d\u7684\u6218\u6597\u673a\uff0c\u9664\u4e86\u7c89\u8d28\u4f1a\u6bd4\u5927\u724c\u5dee\u4e00\u70b9\u4e4b\u5916\u611f\u89c9\u771f\u7684\u662f\u4e1a...",
			"iszan": 0,
			"isfav": 0,
			"islink": 0,
			"istao": 1,
			"link": "0",
			"view_num": 220,
			"zan_num": 12,
			"fav_num": 0,
			"com_num": 1
		},
		"topicdata": [{
			"tid": 3,
			"title": "\u6652\u5f69\u5986"
		}]
	}]
}
