{
	"success": 1,
	"tips": "\u6210\u529f\u83b7\u53d6\u6570\u636e",
	"page": 1,
	"pages": 5654,
	"pagesize": 10,
	"total": 56533,
	"daren": {
		"title": "\u8fbe\u4eba\u4e4b\u661f",
		"more_text": "\u67e5\u770b\u66f4\u591a",
		"datas": [{
			"userid": 82121,
			"avatar": "http://img.meishai.com/avatar/9/3/82121/90x90.jpg",
			"username": "\u963f\u5927\u5927"
		}]
	},
	"topic": {
		"title": "\u4e13\u9898\u6d3b\u52a8",
		"more_text": "\u67e5\u770b\u66f4\u591a",
		"cid": 2,
		"tempid": 1,
		"datas": [{
			"tid": 1257,
			"image": "http://img.meishai.com/2016/0505/20160505061411258.jpg",
			"name": "\u590f\u65e5\u5fc5\u5907"
		}, {
			"tid": 1250,
			"image": "http://img.meishai.com/2016/0504/20160504020855643.jpg",
			"name": "\u7f8e\u5986\u597d\u7269"
		}, {
			"tid": 1243,
			"image": "http://img.meishai.com/2016/0429/20160429070035387.jpg",
			"name": "\u5bb6\u5c45\u597d\u7269"
		}, {
			"tid": 1231,
			"image": "http://img.meishai.com/2016/0429/20160429022026404.jpg",
			"name": "\u9762\u819c\u65e5\u8bb0"
		}, {
			"tid": 1208,
			"image": "http://img.meishai.com/2016/0419/20160419080924172.jpg",
			"name": "\u5403\u8d27\u7b14\u8bb0"
		}, {
			"tid": 1205,
			"image": "http://img.meishai.com/2016/0419/20160419082412477.jpg",
			"name": "\u9632\u6652\u5fc5\u5907"
		}, {
			"tid": 1209,
			"image": "http://img.meishai.com/2016/0419/20160419083240628.jpg",
			"name": "\u7c89\u8272\u7f8e\u7269"
		}, {
			"tid": 1193,
			"image": "http://img.meishai.com/2016/0414/20160414031311842.jpg",
			"name": "\u7f8e\uff0c\u6652\u51fa\u6765"
		}, {
			"tid": 1178,
			"image": "http://img.meishai.com/2016/0411/20160411105124888.jpg",
			"name": "\u5305\u4f60\u597d\u770b"
		}, {
			"tid": 1172,
			"image": "http://img.meishai.com/2016/0407/20160407025428324.jpg",
			"name": "\u989c\u503c\u62c5\u5f53\u5c0f\u5355\u978b"
		}, {
			"tid": 1158,
			"image": "http://img.meishai.com/2016/0331/20160331115421376.jpg",
			"name": "\u53d8\u7f8e\u795e\u5668"
		}, {
			"tid": 1149,
			"image": "http://img.meishai.com/2016/0328/20160328014148647.jpg",
			"name": "\u95fa\u871c\u540c\u6b3e"
		}]
	},
	"catalog": {
		"title": "\u54c1\u8d28\u751f\u6d3b",
		"more_text": "\u67e5\u770b\u66f4\u591a",
		"cid": 1,
		"tempid": 1,
		"datas": [{
			"tid": 2,
			"image": "http://img.meishai.com/2016/0430/20160430030531614.jpg",
			"name": "",
			"text": "\u51718987876\u4eba\u5173\u6ce8"
		}, {
			"tid": 3,
			"image": "http://img.meishai.com/2016/0430/20160430031005583.jpg",
			"name": "",
			"text": "\u51718987876\u4eba\u5173\u6ce8"
		}, {
			"tid": 1,
			"image": "http://img.meishai.com/2016/0430/20160430025904391.jpg",
			"name": "",
			"text": "\u51718987876\u4eba\u5173\u6ce8"
		}, {
			"tid": 4,
			"image": "http://img.meishai.com/2016/0430/20160430031949183.jpg",
			"name": "",
			"text": "\u51718987876\u4eba\u5173\u6ce8"
		}, {
			"tid": 5,
			"image": "http://img.meishai.com/2016/0430/20160430032537359.jpg",
			"name": "",
			"text": "\u51718987876\u4eba\u5173\u6ce8"
		}, {
			"tid": 6,
			"image": "http://img.meishai.com/2016/0430/20160430033601790.jpg",
			"name": "",
			"text": "\u51718987876\u4eba\u5173\u6ce8"
		}, {
			"tid": 7,
			"image": "http://img.meishai.com/2016/0430/20160430034113346.jpg",
			"name": "",
			"text": "\u51718987876\u4eba\u5173\u6ce8"
		}, {
			"tid": 18,
			"image": "http://img.meishai.com/2016/0430/20160430034527758.jpg",
			"name": "",
			"text": "\u51718987876\u4eba\u5173\u6ce8"
		}]
	},
	"list": [{
		"pid": 140909,
		"image": "http://img.meishai.com/2016/1013/20161013054300706.jpg_300x300.jpg",
		"description": "\u8fd9\u6b3eortis\u7684\u6c34\u679c\u7626\u4e4b\u524d\u6709\u63a8\u8350\u8fc7\uff0c\u771f\u7684\u662f\u8fde\u8001\u5988\u90fd\u8d5e\u4e0d\u7edd\u53e3\uff0c\u5403\u5b8c\u4e86\u53c8\u8981\u6211\u5e2e\u5979\u591a\u5907\u70b9\uff01\n\u79cb\u5b63\u5230\u4e86\uff0c\u4eba\u4f53\u6392\u6cc4\u6ca1\u6709\u590f\u5929\u5feb\uff0c\u5404\u79cd\u4fbf\u79d8\uff0c\u8272\u6591\u95ee\u9898\u4e5f\u662f\u5c42\u51fa\u4e0d\u7a77\uff0c\u8eab\u4f53\u4e5f\u5f00\u59cb\u6709\u56e4\u8089\u7684\u8ff9\u8c61&hellip;\n\u9664\u6c34\u80bf\u3001\u5229\u5927\u4fbf\uff0c\u589e\u52a0\u4f53\u5185\u76ca\u751f\u83cc\uff0c\u5e26\u52a8\u80a0\u80c3\u8fd0\u52a8\uff0c\u6062\u590d\u80a0\u80c3\u529f\u80fd\uff0c\u8eab\u4f53\u81ea\u52a8\u6392\u9664\u6bd2\u7d20\uff0c\u4f7f\u8eab\u4f53\u66f2\u7f10\u91cd\u73b0\uff0c\u6709\u6548\u5730\u9632\u6b62\u8272\u7d20\u6c89\u6dc0\uff0c\u6de1\u5316\u8272\u6591\uff0c\u4f7f\u808c\u80a4\u66f4\u767d\u66f4\u6f02\u4eae\uff0c\u8fd9\u4e2a\u4e5f\u662f\u8fd9\u4e2a\u6c34\u679c\u7626\u4e3b\u8981\u575a\u6301\u7684\u3002\n\u7814\u7a76\u6d4b\u8bd5\u7ed3\u679c\u8868\u660e\uff1a\u6bcf\u5929\u5403\u4e00\u7c92\u540e\uff0c\u80a0\u9053\u8fd0\u52a8\u52a0\u901f50%\uff0c\u6bcf\u5468\u6392\u4fbf...",
		"userid": 82450,
		"avatar": "http://img.meishai.com/avatar/9/3/82450/90x90.jpg",
		"username": "\u65cb\u65cb\u6728\u6728",
		"isdaren": 0,
		"iszan": 0,
		"zan_num": 1
	}, {
		"pid": 140908,
		"image": "http://img.meishai.com/2016/1013/20161013124012926.jpg_300x300.jpg",
		"description": "Dior\u4e30\u5507\u871c\n\u8fd9\u6b3e\u4e30\u5507\u871c\u5728\u6b64\u4e4b\u524d\u6211\u53ea\u7528\u8fc7\u4e00\u6b21\uff0c\u662f\u5728\u673a\u573a\u514d\u7a0e\u5e97\u8bd5\u7528\u4e86\u4e00\u4e0b\uff0c\u611f\u89c9\u7565\u5fae\u6709\u70b9\u7c98\uff0c\u5c31\u4e70\u4e86\u5507\u818f\uff0c\u6ca1\u6709\u4e70\u5507\u871c\u3002\n\u8fd9\u6b21\u5151\u6362\uff0c\u8fd8\u662f\u6709\u4e9b\u72b9\u8c6b\u7684\uff0c\u4e0d\u8fc7\uff0c\u5230\u624b\u4ee5\u540e\uff0c\u76f8\u9694\u4e00\u5e74\u518d\u6b21\u5c1d\u8bd5\uff0c\u611f\u89c9\u4e5f\u8fd8\u4e0d\u9519\u5566\uff01\n\u5237\u5934\u5f88\u8212\u670d\uff0c\u597d\u6d82\u62b9\uff0c\u5507\u871c\u7684\u8d28\u5730\u662f\u6de1\u6de1\u7684\u7c89\u8272\uff0c\u5e26\u6709\u7279\u522b\u7ec6\u5fae\u7684\u73e0\u5149\uff0c\u4e0a\u5507\u662f\u900f\u660e\u7684\uff0c\u4eae\u4eae\u7684\uff0c\u6709\u5236\u9020\u4e30\u76c8\u7684\u6548\u679c\u3002\n\u6700\u559c\u6b22\u7684\u5c31\u662f\u4e0a\u5507\u7684\u90a3\u79cd\u51c9\u51c9\u7684\u611f\u89c9\uff0c\u7279\u522b\u8212\u670d\uff0c\u800c\u4e14\u6e05\u51c9\u7684\u65f6\u95f4\u6bd4\u4ee5\u524d\u7528\u7684\u8584\u8377\u5473\u5507\u818f\u90fd\u957f\u3002\n\u552f\u4e00\u7684\u7f3a\u70b9\u5c31\u662f\u5c0f\u7c98\u5566...",
		"userid": 82121,
		"avatar": "http://img.meishai.com/avatar/9/3/82121/90x90.jpg",
		"username": "\u963f\u5927\u5927",
		"isdaren": 1,
		"iszan": 0,
		"zan_num": 1
	}, {
		"pid": 140907,
		"image": "http://img.meishai.com/2016/1013/20161013082804363.jpg_300x300.jpg",
		"description": "VIICODE t2\u6c27\u773c\u971c\u8574\u542b\u6e90\u81ea\u4e9a\u9a6c\u900a\u70ed\u5e26\u96e8\u6797\u7684\u591a\u79cd\u9ad8\u6548\u73cd\u7a00\u8010\u6c27\u690d\u7269\uff0c\u901a\u8fc7\u7279\u6709\u77f3\u81fc\u53d1\u9175\uff0c\u5e76\u914d\u4ee5\u6d3b\u6c27\u690d\u7269\u8403\u53d6\u7cbe\u534e\uff0c\u53ef\u5524\u9192\u7ec6\u80de\u4e3b\u52a8\u5438\u6c27\u80fd\u529b\uff0c\u5168\u9762\u4fee\u590d\u5404\u79cd\u773c\u90e8\u95ee\u9898\r\u5185\u9644\u6708\u7259\u5f62\u6309\u6469\u7247\uff0c\u5148\u7528\u5b83\u8f7b\u8f7b\u6309\u6469\u773c\u5468\u81f3\u5fae\u5fae\u53d1\u70ed\uff0c\u518d\u53d6\u9002\u91cf\u773c\u971c\u5747\u5300\u6d82\u62b9\u5728\u773c\u5468\u7ee7\u7eed\u6309\u6469\uff0c\u80fd\u591f\u66f4\u597d\u4fc3\u8fdb\u8425\u517b\u6210\u5206\u5438\u6536\uff0c\u8fbe\u5230\u4e8b\u534a\u529f\u500d\u7684\u529f\u6548",
		"userid": 84017,
		"avatar": "http://img.meishai.com/avatar/9/5/84017/90x90.jpg",
		"username": "Qunciey",
		"isdaren": 0,
		"iszan": 0,
		"zan_num": 2
	}, {
		"pid": 140904,
		"image": "http://img.meishai.com/2016/1012/20161012032051963.jpg_300x300.jpg",
		"description": "CODE GLOKOLOR\u6cb3\u9a6c\u59c6\u660e\u6c14\u57abBB \u8fd9\u6b3e\u6c14\u57abBB\uff0c\u662fLG\u65d7\u4e0b\u7684\u59c6\u660e\u5408\u4f5c\u6b3e\uff0c\u6211\u5b8c\u5168\u662f\u51b2\u7740\u840c\u840c\u54d2\u7684\u59c6\u660e\u548c\u6700\u8fd1\u5f88\u706b\u7684\u91d1\u5c5e\u8bbe\u8ba1\u4e70\u7684\u3002 \u8fd9\u6b3e\u76f8\u5bf9\u4e8e\u666e\u901a\u6b3e\uff0c\u589e\u52a0\u4e86\u59c6\u660e\u7684\u56fe\u6848\uff0c\u91cc\u9762\u90fd\u662f\u4e00\u6837\u7684\uff0c\u6309\u538b\u5f0f\u7684\u91d1\u5c5e\u6c14\u57ab\uff0c\u670924\u4e2a\u5c0f\u5b54\uff0c\u6309\u4e0b\u53bb\u7c89\u5e95\u6db2\u624d\u4f1a\u51fa\u6765\uff0c\u53ef\u4ee5\u9694\u7edd\u7a7a\u6c14\uff0c\u66f4\u52a0\u536b\u751f\u3002 \u8fd9\u6b3e\u662f20.5\u53f7\u660e\u4eae\u8272\uff0c\u5c31\u6bd4\u666e\u901a\u768421\u53f7\u8272\u767d\u4e00\u70b9\u70b9\uff0c\u5f88\u81ea\u7136\uff0c\u9002\u5408\u504f\u9ec4\u808c\u3002 \u5230\u4e0b\u5348\u4f1a\u6709\u7565\u5fae\u6d6e\u7c89\uff0c\u6bd5\u7adf\u4ef7\u683c\u4e0d\u8d35\uff0c\u767e\u6765\u5757\u7684\u6837\u5b50\uff0c\u5b66\u751f\u515a\u53ef\u4ee5\u5165\u624b\u3002",
		"userid": 82121,
		"avatar": "http://img.meishai.com/avatar/9/3/82121/90x90.jpg",
		"username": "\u963f\u5927\u5927",
		"isdaren": 1,
		"iszan": 0,
		"zan_num": 1
	}, {
		"pid": 140903,
		"image": "http://img.meishai.com/2016/1012/20161012050936198.jpg_300x300.jpg",
		"description": "\u65e5\u672cAutomatic Beauty\u53cc\u773c\u76ae\u6db2\u80f6\u6c34\n\u4e4b\u524d\u770bpony\u7684\u89c6\u9891\u91cc\u6709\u7528\u8fc7\u8fd9\u6b3e\uff0c\u5c31\u957f\u8349\u4e86\uff0c\u9ed8\u9ed8\u7684\u641c\u4e86tb\uff0c\u627e\u4ee3\u8d2d\u4e70\u4e86\u56de\u6765\u3002\n\u5f88\u591a\u59d1\u5a18\u548c\u6211\u4e00\u6837\uff0c\u662f\u5185\u53cc\uff0c\u7136\u540e\u53cc\u773c\u76ae\u7279\u522b\u4e0d\u660e\u663e...\n\u666e\u904d\u6709\u53cc\u773c\u76ae\u7684\u59d1\u5a18\u7684\u773c\u775b\u90fd\u5f88\u7075\u52a8\uff0c\u7f8e\u4e3d\uff0c\u4f1a\u8bf4\u8bdd\uff01\u54c8\u54c8\uff0c\u597d\u5427\uff0c\u6240\u4ee5\u6ca1\u6709\u5929\u751f\u5927\u53cc\u773c\u76ae\u7684\u59d1\u5a18\u9700\u8981\u540e\u5929\u4fee\u9970\u4e0b\u4e86\uff01\n\u8fd9\u6b3e\u53cc\u773c\u76ae\u80f6\u6c34\u662f\u900f\u660e\uff0c\u901f\u5e72\u7684\u3002\u5bb9\u6613\u4e0a\u5986\uff0c\u7c98\u7ed3\u529b\u4e5f\u5f88\u5f3a\uff0c\u4fdd\u6301\u4e00\u5929\u6ca1\u95ee\u9898&hellip;\u957f\u671f\u4f7f\u7528\uff0c\u773c\u76ae\u4e5f\u662f\u4f1a\u6709\u8bb0\u5fc6\u529f\u80fd\uff0c\u5373\u4f7f\u4e0d\u6d82\u80f6\u6c34\u4e5f\u4f1a\u81ea\u7136\u5206\u5c42...\n\u8bf4\u4e0b\u4f7f...",
		"userid": 82450,
		"avatar": "http://img.meishai.com/avatar/9/3/82450/90x90.jpg",
		"username": "\u65cb\u65cb\u6728\u6728",
		"isdaren": 0,
		"iszan": 0,
		"zan_num": 1
	}, {
		"pid": 140901,
		"image": "http://img.meishai.com/2016/1011/20161011074655834.jpg_300x300.jpg",
		"description": "\u79d1\u989c\u6c0f\u767d\u6ce5\u9762\u819c\n\u4e4b\u524d\u7528\u7684\u6e05\u6d01\u9762\u819c\u662f\u60a6\u8bd7\u98ce\u541f\u7684\uff0c\u611f\u89c9\u6548\u679c\u4e0d\u548b\u6837\uff0c\u5c31\u6362\u4e86\u8fd9\u4e2a\u767d\u6ce5\u3002\n\u8fd9\u4e00\u7f50\u91cf\u771f\u7684\u5f88\u8db3\uff0c\u771f\u7684\u53ef\u4ee5\u7528\u597d\u4e45\u4e86\uff0c\u6bcf\u6b21\u4e5f\u53ea\u8981\u635e\u53d6\u4e00\u70b9\u70b9\uff0c\u611f\u89c9\u633a\u7701\u7684\u3002\n\u6211\u4e00\u822c\u4e00\u4e2a\u661f\u671f\u75282\u6b21\u5de6\u53f3\uff0c\u6577\u5b8c\u8fd9\u4e2a\u7b4915\u5206\u949f\u7528\u6e29\u6c34\u6d17\u6389\uff0c\u6d17\u5b8c\u611f\u89c9\u8138\u4e0a\u5f88\u8212\u670d\uff0c\u7a0d\u5fae\u6709\u4e00\u70b9\u5e72\uff0c\u4f46\u662f\u767d\u5934\u4f1a\u5192\u51fa\u6765\u4e00\u4e9b\uff0c\u7279\u522b\u723d\uff0c\u7528\u4e45\u4e86\u75d8\u75d8\u611f\u89c9\u4e5f\u6709\u53d8\u5c11\uff0c\u4e0d\u77e5\u9053\u662f\u4e0d\u662f\u5fc3\u7406\u4f5c\u7528\u3002\n\u4e0d\u8fc7\u8fd9\u4e2a\u767d\u6ce5\u7528\u8d77\u6765\u5343\u4e07\u4e0d\u8981\u7701\uff0c\u4e4b\u524d\u5728\u7f51\u4e0a\u770b\u5230\u6709\u5b9d\u5b9d\u8bf4\uff0c\u8fd9\u4e2a\u767d\u6ce5\u7528\u76841\u5e74\u591a\u4f1a\u53d8\u5473\u513f\uff0c\u6700...",
		"userid": 82121,
		"avatar": "http://img.meishai.com/avatar/9/3/82121/90x90.jpg",
		"username": "\u963f\u5927\u5927",
		"isdaren": 1,
		"iszan": 0,
		"zan_num": 1
	}, {
		"pid": 140900,
		"image": "http://img.meishai.com/2016/1010/20161010010945809.jpg_300x300.jpg",
		"description": "\u79d1\u989c\u6c0f\u91d1\u76cf\u82b1\u6c34\n\u91d1\u76cf\u82b1\u6c34\u662f\u6211\u7b2c\u4e00\u6b21\u7528\uff0c\u6240\u4ee5\u4e70\u7684\u662f\u5c0f\u74f6\u7684\uff0c\u4e00\u76f4\u88ab\u5b89\u5229\uff0c\u6700\u8fd1\u989d\u5934\u6362\u5b63\u5192\u4e86\u597d\u4e9b\u95ed\u53e3\uff0c\u5c31\u7acb\u9a6c\u60f3\u5230\u4e86\u8fd9\u4e2a\u3002\n\u4e70\u5c0f\u74f6\u88c5\u662f\u4e3a\u4e86\u5148\u5c1d\u8bd5\u4e00\u4e0b\uff0c\u4f7f\u7528\u6548\u679c\u6211\u8fd8\u7b97\u6bd4\u8f83\u6ee1\u610f\u7684\u3002\n\u6a58\u8272\u7684\u723d\u80a4\u6c34\uff0c\u91cc\u9762\u6709\u5f88\u591a\u91d1\u76cf\u82b1\u7684\u82b1\u74e3\uff0c\u5473\u9053\u662f\u6bd4\u8f83\u6e05\u723d\u7684\u90a3\u79cd\uff0c\u53cd\u6b63\u95fb\u7740\u5473\u9053\u633a\u8212\u670d\u7684\u3002\n\u6211\u5c31\u662f\u7528\u6765\u62cd\u8138\uff0c\u62cd\u5728\u8138\u4e0a\u51c9\u51c9\u7684\u5f88\u8212\u670d\uff0c\u5177\u6709\u4fdd\u6e7f\u9547\u5b9a\u6d88\u708e\u7684\u529f\u6548\u3002",
		"userid": 82121,
		"avatar": "http://img.meishai.com/avatar/9/3/82121/90x90.jpg",
		"username": "\u963f\u5927\u5927",
		"isdaren": 1,
		"iszan": 0,
		"zan_num": 1
	}, {
		"pid": 140899,
		"image": "http://img.meishai.com/2016/1010/20161010121324884.jpg_300x300.jpg",
		"description": "Janesce\u7504\u65ce\u8bd7\u67d4\u6da6\u4fdd\u6e7f\u7cfb\u5217\n\u6211\u5bf9\u4ee5\u82b1\u4e3a\u539f\u6599\u7684\u4ea7\u54c1\u5f88\u611f\u5174\u8da3\uff0c\u611f\u89c9\u81ea\u7136\u7684\u82b1\u9999\u5f88\u6cbb\u6108\u3002\u6fb3\u6d32\u7559\u5b66\u7684\u670b\u53cb\u7ed9\u6211\u63a8\u8350\u4e86Janesce\u8fd9\u4e2a\u6fb3\u6d32\u56fd\u5b9d\u7ea7\u62a4\u80a4\u54c1\u724c\u3002\n\u6211\u624b\u5934\u67094\u6837\u5b83\u5bb6\u4ea7\u54c1\uff1a\n\u67d4\u6da6\u4fdd\u6e7f\u6c34\u6eb6\u7cbe\u534e\u6cb9 30ml 208rmb\n\u6ef4\u51e0\u6ef4\u5230\u6e29\u70ed\u7684\u6c34\u91cc\uff0c\u8f7b\u8f7b\u6577\u8138\uff0c\u53ef\u4ee5\u5e2e\u52a9\u8212\u7f13\u808c\u80a4\uff0c\u4fc3\u8fdb\u540e\u7eed\u62a4\u80a4\u54c1\u7684\u5438\u6536\u3002\u8fd8\u80fd\u52a0\u5728\u6ce1\u6ce1\u6d74\u3001\u9999\u85b0\u673a\u4e2d\u5e2e\u52a9\u8212\u7f13\u5168\u8eab\u3002\n\u67d4\u6da6\u4fdd\u6e7f\u82b1\u5349\u6c34 100ml 328rmb\n\u542b\u6709\u73ab\u7470\u82b1\u6c34\u548c\u73ab\u7470\u7cbe\u6cb9\u7cbe\u534e\uff0c\u52a0\u4e0a\u55b7\u96fe\u7684\u8bbe\u8ba1\uff0c\u8ba9\u808c\u80a4\u8fc5\u901f\u8865\u6c34\u3002\u957f\u671f\u4f7f\u7528...",
		"userid": 79837,
		"avatar": "http://img.meishai.com/avatar/8/10/79837/90x90.jpg",
		"username": "Fabulousdaisy",
		"isdaren": 0,
		"iszan": 0,
		"zan_num": 2
	}, {
		"pid": 140898,
		"image": "http://img.meishai.com/2016/1009/20161009073938732.jpg_300x300.jpg",
		"description": "\u62ef\u6551\u8d2b\u4e73\u7684\u8d85\u597d\u7a7f\u5185\u8863\uff01\uff01\n\u6700\u8fd1\u670b\u53cb\u9001\u4e86\u4e00\u5957\u5185\u8863\uff0c\u770b\u5916\u89c2\u8ddf\u5e73\u65f6\u7684\u65e0\u75d5\u5185\u8863\u5dee\u4e0d\u591a\uff0c\u4f46\u7a7f\u8d77\u6765\u771f\u662f\u8ddf\u5e73\u65f6\u7684\u5927\u4e0d\u540c\u3002\n\u25b3\n\u9996\u5148\u7a7f\u8d77\u6765\u5f88\u8212\u670d\uff0c\u4e00\u7247\u5f0f\u65e0\u75d5\uff0c\u89e6\u611f\u4e1d\u6ed1\uff0c\u7a7f\u8d77\u6765\u4eb2\u80a4\u65e0\u75d5\u3002\u6211\u8fd9\u4e2a\u6b3e\u53eb\u624b\u638c\u6b3e\uff0c3D\u624b\u638c\u6982\u5ff5\uff0c\u5bf9\u5c0f\u80f8\u3001\u5916\u6269\u3001\u526f\u4e73\u3001\u4e0b\u5782\u90fd\u6709\u5f88\u660e\u663e\u7684\u6548\u679c\u3002\u7ecf\u5e38\u7a7f\u7740\u53ef\u4ee5\u5e2e\u52a9\u8c03\u6574\u5b8c\u7f8e\u7684\u80f8\u578b\u3002\n\u25b3\n\u5185\u8863\u7f69\u676f\u65c1\u8fb9\u6709\u534a\u5708\u9632\u6ed1\u6309\u6469\u70b9\uff0c\u7a7f\u62b9\u80f8\u9732\u80a9\u8863\u670d\u7684\u65f6\u5019\u53ef\u4ee5\u653e\u5fc3\u5730\u628a\u5185\u8863\u5e26\u62c6\u4e86\uff0c\u4e0d\u7528\u62c5\u5fc3\u5185\u8863\u4e0b\u6ed1\u3002\u540c\u65f6\u8fd9\u4e9b\u5c0f\u70b9\u70b9\u53ef\u4ee5\u6309\u6469\u80f8\u90e8\u6dcb\u5df4\uff0c...",
		"userid": 79837,
		"avatar": "http://img.meishai.com/avatar/8/10/79837/90x90.jpg",
		"username": "Fabulousdaisy",
		"isdaren": 0,
		"iszan": 0,
		"zan_num": 2
	}, {
		"pid": 140897,
		"image": "http://img.meishai.com/2016/1009/20161009063014521.jpg_300x300.jpg",
		"description": "\u4e1c\u65b9\u5b9d\u77f3\u6d17\u624b\u6db2\uff0c\u8fd9\u6b3e\u7684\u9999\u578b\u662f\u6c34\u83b2\u82b1\u7684\uff0c\u4e5f\u662f\u6700\u597d\u95fb\u7684\u4e00\u6b3e...\n\u4e4b\u524d\u7528\u8fc7\u6c34\u83b2\u82b1\u7684\u8eab\u4f53\u4e73\uff0c\u5473\u9053\u5f88\u597d\u95fb\uff0c\u9999\u5473\u5728\u6d53\u70c8\u548c\u6e05\u6de1\u4e4b\u95f4\u3002\u8fd9\u4e2a\u6c34\u83b2\u82b1\u7cfb\u5217\u7684\u8eab\u4f53\u4e73\uff0c\u6c90\u6d74\u9732\uff0c\u9999\u7682\u8fd8\u662f\u6d17\u624b\u6db2\u90fd\u662f\u7edf\u4e00\u7684\u5473\u9053\uff0c\u73b0\u5728\u6bcf\u6b21\u6d17\u5b8c\u624b\u4e4b\u540e\u90fd\u662f\u9999\u9999\u7684...\n...\n\u8fd9\u74f6\u6d17\u624b\u6db2\u7684\u5bb9\u91cf\u6709300m\uff0c\u5bb9\u91cf\u8fd8\u662f\u5f88\u591a\u7684\uff0c\u800c\u4e14\u8d28\u5730\u975e\u5e38\u67d4\u548c\uff0c\u53ef\u4ee5\u6df1\u5c42\u6e05\u6d01\u808c\u80a4\uff0c\u4fdd\u6e7f\u5473\u9053\u4e5f\u597d\u95fb...\n...\n\u8fd9\u6b3e\u6d17\u624b\u6db2\u53f7\u79f0\u65e0\u6dfb\u52a0\uff0c\u5b55\u5987\u513f\u7ae5\u90fd\u662f\u53ef\u4ee5\u7528\u7684\u3002\u8fd9\u6b3e\u6d17\u624b\u6db2\u5462\u662f\u5c5e\u4e8e\u5f31\u9178\u6027\uff0c\u6d17\u5b8c\u624b\u540e\u76ae\u80a4\u4e0d...",
		"userid": 82450,
		"avatar": "http://img.meishai.com/avatar/9/3/82450/90x90.jpg",
		"username": "\u65cb\u65cb\u6728\u6728",
		"isdaren": 0,
		"iszan": 0,
		"zan_num": 1
	}]
}
