{
	"success": 1,
	"tips": "\u6210\u529f\u83b7\u53d6\u6570\u636e",
	"page": 1,
	"pages": 6,
	"pagesize": 10,
	"total": 55,
	"slide": [{
		"type": "h5",
		"tempid": 0,
		"image": "http://img.meishai.com/2016/0321/20160321094445371.jpg",
		"image_width": 594,
		"image_height": 300,
		"value": "&chid=1",
		"h5data": {
			"islogin": 1,
			"controller": "goods",
			"action": "lists",
			"parameter": "&chid=1",
			"userid": 0
		}
	}, {
		"type": "h5",
		"tempid": 0,
		"image": "http://img.meishai.com/2016/0708/20160708114734263.png",
		"image_width": 594,
		"image_height": 300,
		"value": "",
		"h5data": {
			"islogin": 1,
			"controller": "mall",
			"action": "index",
			"parameter": "",
			"userid": 0
		}
	}, {
		"type": "h5",
		"tempid": 0,
		"image": "http://img.meishai.com/2016/0321/20160321094628291.jpg",
		"image_width": 594,
		"image_height": 300,
		"value": "",
		"h5data": {
			"islogin": 1,
			"controller": "app",
			"action": "meiclub",
			"parameter": "",
			"userid": 0
		}
	}, {
		"type": "h5",
		"tempid": 0,
		"image": "http://img.meishai.com/2016/0708/20160708103239805.png",
		"image_width": 594,
		"image_height": 300,
		"value": "",
		"h5data": {
			"islogin": 1,
			"controller": "mall",
			"action": "orderlist",
			"parameter": "",
			"userid": 0
		}
	}],
	"list": [{
		"gid": 8002,
		"image": "http://img.meishai.com/2016/1010/20161010014427824.jpg",
		"icon": "http://img.meishai.com/phone/tuan_.png",
		"icon_width": 150,
		"icon_height": 150,
		"isnew": 0,
		"title": "\u30105\u65a4\u5bb6\u5ead\u88c5\u3011\u9999\u999c\u85b0\u8863\u8349\u6d17\u8863\u6db2\u74f6\u88c54\u65a4\u88c5+\u888b\u88c51\u65a4\u88c5",
		"allnum": "\u62fc\u56e2\u4ef7\uff1a19.9\u5143",
		"appnum": "    \u5355\u4e70\u4ef7\uff1a29\u5143",
		"endday": "2\u4eba\u56e2",
		"iswap": 1,
		"h5data": {
			"islogin": 0,
			"controller": "mall",
			"action": "show",
			"parameter": "&gid=8002",
			"userid": 0
		}
	}, {
		"gid": 7975,
		"image": "http://img.meishai.com/2016/1008/20161008021638432.jpg",
		"icon": "http://img.meishai.com/phone/tuan_.png",
		"icon_width": 150,
		"icon_height": 150,
		"isnew": 0,
		"title": "\u3010\u6700\u540e1000\u4ef6\u3011\u9655\u5317\u9ec4\u6cb3\u6ee9\u5927\u7ea2\u67a3500g",
		"allnum": "\u62fc\u56e2\u4ef7\uff1a5.8\u5143",
		"appnum": "    \u5355\u4e70\u4ef7\uff1a15\u5143",
		"endday": "50\u4eba\u56e2",
		"iswap": 1,
		"h5data": {
			"islogin": 0,
			"controller": "mall",
			"action": "show",
			"parameter": "&gid=7975",
			"userid": 0
		}
	}, {
		"gid": 7739,
		"image": "http://img.meishai.com/2016/0926/20160926103258294.jpg",
		"icon": "http://img.meishai.com/phone/tuan_.png",
		"icon_width": 150,
		"icon_height": 150,
		"isnew": 0,
		"title": "\u3010\u8fdb\u53e3\u96f6\u98df\u3011\u5370\u5c3c\u4e3d\u829d\u58eb\u7eb3\u5b9d\u5e1d\u5a01\u5316\u997c\u5e72 145\u514b",
		"allnum": "\u62fc\u56e2\u4ef7\uff1a9.9\u5143",
		"appnum": "    \u5355\u4e70\u4ef7\uff1a12\u5143",
		"endday": "2\u4eba\u56e2",
		"iswap": 1,
		"h5data": {
			"islogin": 0,
			"controller": "mall",
			"action": "show",
			"parameter": "&gid=7739",
			"userid": 0
		}
	}, {
		"gid": 7350,
		"image": "http://img.meishai.com/2016/0926/20160926102346973.jpg",
		"icon": "http://img.meishai.com/phone/tuan_.png",
		"icon_width": 150,
		"icon_height": 150,
		"isnew": 0,
		"title": "\u3010\u574f\u679c\u5305\u8d54\u3011\u73b0\u6458\u519c\u5bb6\u81ea\u79cd \u7eff\u5fc3\u7315\u7334\u6843 5\u65a4\u88c5",
		"allnum": "\u62fc\u56e2\u4ef7\uff1a19.9\u5143",
		"appnum": "    \u5355\u4e70\u4ef7\uff1a23\u5143",
		"endday": "2\u4eba\u56e2",
		"iswap": 1,
		"h5data": {
			"islogin": 0,
			"controller": "mall",
			"action": "show",
			"parameter": "&gid=7350",
			"userid": 0
		}
	}, {
		"gid": 6405,
		"image": "http://img.meishai.com/2016/0806/20160806041623883.jpg",
		"icon": "http://img.meishai.com/phone/tuan_.png",
		"icon_width": 150,
		"icon_height": 150,
		"isnew": 0,
		"title": "\u3010\u4eca\u65e5\u7279\u4ef7\u3011\u65e0\u6f02\u767d\u539f\u5473\u76d0\u7117\u5f00\u5fc3\u679c 500\u514bx2\u7f50",
		"allnum": "\u62fc\u56e2\u4ef7\uff1a32.8\u5143",
		"appnum": "    \u5355\u4e70\u4ef7\uff1a35\u5143",
		"endday": "2\u4eba\u56e2",
		"iswap": 1,
		"h5data": {
			"islogin": 0,
			"controller": "mall",
			"action": "show",
			"parameter": "&gid=6405",
			"userid": 0
		}
	}, {
		"gid": 7745,
		"image": "http://img.meishai.com/2016/0926/20160926110618462.jpg",
		"icon": "http://img.meishai.com/phone/tuan_.png",
		"icon_width": 150,
		"icon_height": 150,
		"isnew": 0,
		"title": "\u3010\u9650\u65f6\u7279\u60e0\u3011\u7eaf\u68c9\u6de1\u96c5\u52a0\u539a\u6bdb\u5dfe 4\u6761\u88c5",
		"allnum": "\u62fc\u56e2\u4ef7\uff1a19.9\u5143",
		"appnum": "    \u5355\u4e70\u4ef7\uff1a21.9\u5143",
		"endday": "2\u4eba\u56e2",
		"iswap": 1,
		"h5data": {
			"islogin": 0,
			"controller": "mall",
			"action": "show",
			"parameter": "&gid=7745",
			"userid": 0
		}
	}, {
		"gid": 7327,
		"image": "http://img.meishai.com/2016/0909/20160909041606567.jpg",
		"icon": "http://img.meishai.com/phone/tuan_.png",
		"icon_width": 150,
		"icon_height": 150,
		"isnew": 0,
		"title": "36\u5377\u3010\u5e73\u57470.55\u5143/\u5377\u3011\u539f\u751f\u6728\u6d46\u65e0\u82af\u5377\u7eb8",
		"allnum": "\u62fc\u56e2\u4ef7\uff1a22.9\u5143",
		"appnum": "    \u5355\u4e70\u4ef7\uff1a28\u5143",
		"endday": "2\u4eba\u56e2",
		"iswap": 1,
		"h5data": {
			"islogin": 0,
			"controller": "mall",
			"action": "show",
			"parameter": "&gid=7327",
			"userid": 0
		}
	}, {
		"gid": 5981,
		"image": "http://img.meishai.com/2016/0706/20160706041335564.jpg",
		"icon": "http://img.meishai.com/phone/tuan_.png",
		"icon_width": 150,
		"icon_height": 150,
		"isnew": 0,
		"title": "\u30102\u76d2\u4fbf\u643a\u88c5\u3011\u97e9\u56fd\u8fdb\u53e3 \u672c\u6069 \u65e0\u8367\u5149\u5242\u7eaf\u68c9\u65e5\u7528\u536b\u751f\u5dfe 240mmx4\u7247x2\u76d2",
		"allnum": "\u62fc\u56e2\u4ef7\uff1a0\u5143",
		"appnum": "    \u5355\u4e70\u4ef7\uff1a15\u5143",
		"endday": "0\u4eba\u56e2",
		"iswap": 1,
		"h5data": {
			"islogin": 0,
			"controller": "mall",
			"action": "show",
			"parameter": "&gid=5981",
			"userid": 0
		}
	}, {
		"gid": 5975,
		"image": "http://img.meishai.com/2016/0705/20160705071506533.jpg",
		"icon": "http://img.meishai.com/phone/tuan_.png",
		"icon_width": 150,
		"icon_height": 150,
		"isnew": 0,
		"title": "\u30103\u530540\u7247\u3011\u97e9\u56fd\u8fdb\u53e3 \u672c\u6069   \u65e0\u8367\u5149\u5242\u5929\u7136\u7eaf\u68c9\u59e8\u5988\u5dfe\u65e5\u752816\u7247+\u591c\u752810\u7247+\u62a4\u57ab14\u7247",
		"allnum": "\u62fc\u56e2\u4ef7\uff1a0\u5143",
		"appnum": "    \u5355\u4e70\u4ef7\uff1a75\u5143",
		"endday": "0\u4eba\u56e2",
		"iswap": 1,
		"h5data": {
			"islogin": 0,
			"controller": "mall",
			"action": "show",
			"parameter": "&gid=5975",
			"userid": 0
		}
	}, {
		"gid": 5771,
		"image": "http://img.meishai.com/2016/0705/20160705072201462.jpg",
		"icon": "http://img.meishai.com/phone/tuan_.png",
		"icon_width": 150,
		"icon_height": 150,
		"isnew": 0,
		"title": "\u30102\u652f\u88c5\u3011\u65b0\u897f\u5170\u8fdb\u53e3 \u6d77\u4e1d\u84d3\u5eb7 \u4fdd\u6e7f\u6e29\u548c\u53bb\u89d2\u8d28\u6c90\u6d74\u5957\u88c5240\u6beb\u5347x2",
		"allnum": "\u62fc\u56e2\u4ef7\uff1a0\u5143",
		"appnum": "    \u5355\u4e70\u4ef7\uff1a78\u5143",
		"endday": "0\u4eba\u56e2",
		"iswap": 1,
		"h5data": {
			"islogin": 0,
			"controller": "mall",
			"action": "show",
			"parameter": "&gid=5771",
			"userid": 0
		}
	}]
}
